%YAML 1.1
%TAG !u! tag:unity3d.com,2011:
--- !u!29 &1
OcclusionCullingSettings:
  m_ObjectHideFlags: 0
  serializedVersion: 2
  m_OcclusionBakeSettings:
    smallestOccluder: 5
    smallestHole: 0.25
    backfaceThreshold: 100
  m_SceneGUID: 00000000000000000000000000000000
  m_OcclusionCullingData: {fileID: 0}
--- !u!104 &2
RenderSettings:
  m_ObjectHideFlags: 0
  serializedVersion: 9
  m_Fog: 0
  m_FogColor: {r: 0.5, g: 0.5, b: 0.5, a: 1}
  m_FogMode: 3
  m_FogDensity: 0.01
  m_LinearFogStart: 0
  m_LinearFogEnd: 300
  m_AmbientSkyColor: {r: 0.212, g: 0.227, b: 0.259, a: 1}
  m_AmbientEquatorColor: {r: 0.114, g: 0.125, b: 0.133, a: 1}
  m_AmbientGroundColor: {r: 0.047, g: 0.043, b: 0.035, a: 1}
  m_AmbientIntensity: 1
  m_AmbientMode: 0
  m_SubtractiveShadowColor: {r: 0.42, g: 0.478, b: 0.627, a: 1}
  m_SkyboxMaterial: {fileID: 0}
  m_HaloStrength: 0.5
  m_FlareStrength: 1
  m_FlareFadeSpeed: 3
  m_HaloTexture: {fileID: 0}
  m_SpotCookie: {fileID: 10001, guid: 0000000000000000e000000000000000, type: 0}
  m_DefaultReflectionMode: 0
  m_DefaultReflectionResolution: 128
  m_ReflectionBounces: 1
  m_ReflectionIntensity: 1
  m_CustomReflection: {fileID: 0}
  m_Sun: {fileID: 2035111234}
  m_IndirectSpecularColor: {r: 131.16855, g: 162.52502, b: 215.10977, a: 1}
  m_UseRadianceAmbientProbe: 0
--- !u!157 &3
LightmapSettings:
  m_ObjectHideFlags: 0
  serializedVersion: 11
  m_GIWorkflowMode: 1
  m_GISettings:
    serializedVersion: 2
    m_BounceScale: 1
    m_IndirectOutputScale: 1
    m_AlbedoBoost: 1
    m_EnvironmentLightingMode: 0
    m_EnableBakedLightmaps: 1
    m_EnableRealtimeLightmaps: 0
  m_LightmapEditorSettings:
    serializedVersion: 12
    m_Resolution: 2
    m_BakeResolution: 16
    m_AtlasSize: 1024
    m_AO: 0
    m_AOMaxDistance: 1
    m_CompAOExponent: 1
    m_CompAOExponentDirect: 0
    m_ExtractAmbientOcclusion: 0
    m_Padding: 2
    m_LightmapParameters: {fileID: 0}
    m_LightmapsBakeMode: 1
    m_TextureCompression: 1
    m_FinalGather: 0
    m_FinalGatherFiltering: 1
    m_FinalGatherRayCount: 256
    m_ReflectionCompression: 0
    m_MixedBakeMode: 0
    m_BakeBackend: 1
    m_PVRSampling: 1
    m_PVRDirectSampleCount: 32
    m_PVRSampleCount: 300
    m_PVRBounces: 2
    m_PVREnvironmentSampleCount: 300
    m_PVREnvironmentReferencePointCount: 2048
    m_PVRFilteringMode: 2
    m_PVRDenoiserTypeDirect: 0
    m_PVRDenoiserTypeIndirect: 2
    m_PVRDenoiserTypeAO: 0
    m_PVRFilterTypeDirect: 0
    m_PVRFilterTypeIndirect: 2
    m_PVRFilterTypeAO: 0
    m_PVREnvironmentMIS: 1
    m_PVRCulling: 1
    m_PVRFilteringGaussRadiusDirect: 1
    m_PVRFilteringGaussRadiusIndirect: 5
    m_PVRFilteringGaussRadiusAO: 2
    m_PVRFilteringAtrousPositionSigmaDirect: 0.5
    m_PVRFilteringAtrousPositionSigmaIndirect: 2
    m_PVRFilteringAtrousPositionSigmaAO: 1
    m_ExportTrainingData: 0
    m_TrainingDataDestination: TrainingData
    m_LightProbeSampleCountMultiplier: 4
  m_LightingDataAsset: {fileID: 112000000, guid: 56e85d5dc4d99b24f9b01a6f086bd74d,
    type: 2}
  m_UseShadowmask: 0
--- !u!196 &4
NavMeshSettings:
  serializedVersion: 2
  m_ObjectHideFlags: 0
  m_BuildSettings:
    serializedVersion: 2
    agentTypeID: 0
    agentRadius: 0.5
    agentHeight: 2
    agentSlope: 45
    agentClimb: 0.4
    ledgeDropHeight: 0
    maxJumpAcrossDistance: 0
    minRegionArea: 2
    manualCellSize: 0
    cellSize: 0.16666667
    manualTileSize: 0
    tileSize: 256
    accuratePlacement: 0
    debug:
      m_Flags: 0
  m_NavMeshData: {fileID: 0}
--- !u!1 &168218571
GameObject:
  m_ObjectHideFlags: 0
  m_CorrespondingSourceObject: {fileID: 1787972506507192, guid: b99944bf0f66a4643ac9a98799610529,
    type: 2}
  m_PrefabInstance: {fileID: 0}
  m_PrefabAsset: {fileID: 0}
  serializedVersion: 6
  m_Component:
  - component: {fileID: 168218572}
  - component: {fileID: 168218573}
  - component: {fileID: 168218576}
  - component: {fileID: 168218575}
  - component: {fileID: 168218574}
  m_Layer: 0
  m_Name: Reflection Probe Main
  m_TagString: Untagged
  m_Icon: {fileID: 0}
  m_NavMeshLayer: 0
  m_StaticEditorFlags: 0
  m_IsActive: 1
--- !u!4 &168218572
Transform:
  m_ObjectHideFlags: 0
  m_CorrespondingSourceObject: {fileID: 4479427943683164, guid: b99944bf0f66a4643ac9a98799610529,
    type: 2}
  m_PrefabInstance: {fileID: 0}
  m_PrefabAsset: {fileID: 0}
  m_GameObject: {fileID: 168218571}
  m_LocalRotation: {x: -0, y: -0, z: -0, w: 1}
  m_LocalPosition: {x: 0.019999983, y: 1.196, z: 1.8100319}
  m_LocalScale: {x: 1, y: 1, z: 1}
  m_Children: []
  m_Father: {fileID: 405591765}
  m_RootOrder: 0
  m_LocalEulerAnglesHint: {x: 0, y: 0, z: 0}
--- !u!215 &168218573
ReflectionProbe:
  m_ObjectHideFlags: 0
  m_CorrespondingSourceObject: {fileID: 215312914500498710, guid: b99944bf0f66a4643ac9a98799610529,
    type: 2}
  m_PrefabInstance: {fileID: 0}
  m_PrefabAsset: {fileID: 0}
  m_GameObject: {fileID: 168218571}
  m_Enabled: 1
  serializedVersion: 2
  m_Type: 0
  m_Mode: 2
  m_RefreshMode: 2
  m_TimeSlicingMode: 0
  m_Resolution: 256
  m_UpdateFrequency: 0
  m_BoxSize: {x: 3.683801, y: 2.547348, z: 3.717638}
  m_BoxOffset: {x: 0, y: 0, z: 0}
  m_NearClip: 0.3
  m_FarClip: 1000
  m_ShadowDistance: 100
  m_ClearFlags: 1
  m_BackGroundColor: {r: 0.19215687, g: 0.3019608, b: 0.4745098, a: 0}
  m_CullingMask:
    serializedVersion: 2
    m_Bits: 4294967295
  m_IntensityMultiplier: 1
  m_BlendDistance: 0
  m_HDR: 1
  m_BoxProjection: 0
  m_RenderDynamicObjects: 0
  m_UseOcclusionCulling: 1
  m_Importance: 1
  m_CustomBakedTexture: {fileID: 0}
--- !u!114 &168218574
MonoBehaviour:
  m_ObjectHideFlags: 0
  m_CorrespondingSourceObject: {fileID: 0}
  m_PrefabInstance: {fileID: 0}
  m_PrefabAsset: {fileID: 0}
  m_GameObject: {fileID: 168218571}
  m_Enabled: 1
  m_EditorHideFlags: 0
  m_Script: {fileID: 11500000, guid: d0ef8dc2c2eabfa4e8cb77be57a837c0, type: 3}
  m_Name: 
  m_EditorClassIdentifier: 
  m_HDProbeVersion: 3
  m_ObsoleteInfiniteProjection: 0
  m_ObsoleteInfluenceVolume:
    m_EditorAdvancedModeBlendDistancePositive: {x: 0.1, y: 0.33046675, z: 0}
    m_EditorAdvancedModeBlendDistanceNegative: {x: 0, y: 0, z: 0.1}
    m_EditorSimplifiedModeBlendDistance: 0.33046675
    m_EditorAdvancedModeBlendNormalDistancePositive: {x: 0.1, y: 0, z: 0}
    m_EditorAdvancedModeBlendNormalDistanceNegative: {x: 0, y: 0, z: 0}
    m_EditorSimplifiedModeBlendNormalDistance: 0.1
    m_EditorAdvancedModeEnabled: 1
    m_EditorAdvancedModeFaceFadePositive: {x: 1, y: 1, z: 1}
    m_EditorAdvancedModeFaceFadeNegative: {x: 1, y: 1, z: 1}
    m_Version: 1
    m_ObsoleteSphereBaseOffset: {x: 0, y: 0, z: 0}
    m_ObsoleteOffset: {x: 0, y: 0, z: 0}
    m_Shape: 0
    m_BoxSize: {x: 3.683801, y: 2.547348, z: 3.717638}
    m_BoxBlendDistancePositive: {x: 0.1, y: 0.33046675, z: 0}
    m_BoxBlendDistanceNegative: {x: 0, y: 0, z: 0.1}
    m_BoxBlendNormalDistancePositive: {x: 0.1, y: 0, z: 0}
    m_BoxBlendNormalDistanceNegative: {x: 0, y: 0, z: 0}
    m_BoxSideFadePositive: {x: 1, y: 1, z: 1}
    m_BoxSideFadeNegative: {x: 1, y: 1, z: 1}
    m_SphereRadius: 3
    m_SphereBlendDistance: 0
    m_SphereBlendNormalDistance: 0
  m_ObsoleteFrameSettings:
    overrides: 0
    enableShadow: 1
    enableContactShadows: 1
    enableShadowMask: 1
    enableSSR: 0
    enableSSAO: 1
    enableSubsurfaceScattering: 1
    enableTransmission: 1
    enableAtmosphericScattering: 1
    enableVolumetrics: 1
    enableReprojectionForVolumetrics: 1
    enableLightLayers: 1
    enableExposureControl: 1
    diffuseGlobalDimmer: 1
    specularGlobalDimmer: 1
    shaderLitMode: 1
    enableDepthPrepassWithDeferredRendering: 0
    enableTransparentPrepass: 1
    enableMotionVectors: 1
    enableObjectMotionVectors: 1
    enableDecals: 1
    enableRoughRefraction: 1
    enableTransparentPostpass: 1
    enableDistortion: 1
    enablePostprocess: 1
    enableOpaqueObjects: 1
    enableTransparentObjects: 1
    enableRealtimePlanarReflection: 1
    enableMSAA: 0
    enableAsyncCompute: 1
    runLightListAsync: 1
    runSSRAsync: 1
    runSSAOAsync: 1
    runContactShadowsAsync: 1
    runVolumeVoxelizationAsync: 1
    lightLoopSettings:
      overrides: 0
      enableDeferredTileAndCluster: 1
      enableComputeLightEvaluation: 1
      enableComputeLightVariants: 1
      enableComputeMaterialVariants: 1
      enableFptlForForwardOpaque: 1
      enableBigTilePrepass: 1
      isFptlEnabled: 1
  m_ObsoleteMultiplier: 1
  m_ObsoleteWeight: 1
  m_ObsoleteMode: 0
  m_ObsoleteLightLayers: 1
  m_ObsoleteCaptureSettings:
    overrides: 0
    clearColorMode: 0
    backgroundColorHDR: {r: 0.023529412, g: 0.07058824, b: 0.1882353, a: 0}
    clearDepth: 1
    cullingMask:
      serializedVersion: 2
      m_Bits: 4294967295
    useOcclusionCulling: 1
    volumeLayerMask:
      serializedVersion: 2
      m_Bits: 4294967295
    volumeAnchorOverride: {fileID: 0}
    projection: 0
    nearClipPlane: 0.3
    farClipPlane: 1000
    fieldOfView: 90
    orthographicSize: 5
    renderingPath: 0
    shadowDistance: 100
  m_ProbeSettings:
    frustum:
      fieldOfViewMode: 1
      fixedValue: 90
      automaticScale: 1
      viewerScale: 1
    type: 0
    mode: 0
    realtimeMode: 0
    lighting:
      multiplier: 1
      weight: 1
      lightLayer: 1
      fadeDistance: 10000
      rangeCompressionFactor: 1
    influence:
      m_EditorAdvancedModeBlendDistancePositive: {x: 0.1, y: 0.33046675, z: 0}
      m_EditorAdvancedModeBlendDistanceNegative: {x: 0, y: 0, z: 0.1}
      m_EditorSimplifiedModeBlendDistance: 0.33046675
      m_EditorAdvancedModeBlendNormalDistancePositive: {x: 0.1, y: 0, z: 0}
      m_EditorAdvancedModeBlendNormalDistanceNegative: {x: 0, y: 0, z: 0}
      m_EditorSimplifiedModeBlendNormalDistance: 0.1
      m_EditorAdvancedModeEnabled: 1
      m_EditorAdvancedModeFaceFadePositive: {x: 1, y: 1, z: 1}
      m_EditorAdvancedModeFaceFadeNegative: {x: 1, y: 1, z: 1}
      m_Version: 1
      m_ObsoleteSphereBaseOffset: {x: 0, y: 0, z: 0}
      m_ObsoleteOffset: {x: 0, y: 0, z: 0}
      m_Shape: 0
      m_BoxSize: {x: 3.683801, y: 2.547348, z: 3.717638}
      m_BoxBlendDistancePositive: {x: 0.1, y: 0.33046675, z: 0}
      m_BoxBlendDistanceNegative: {x: 0, y: 0, z: 0.1}
      m_BoxBlendNormalDistancePositive: {x: 0.1, y: 0, z: 0}
      m_BoxBlendNormalDistanceNegative: {x: 0, y: 0, z: 0}
      m_BoxSideFadePositive: {x: 1, y: 1, z: 1}
      m_BoxSideFadeNegative: {x: 1, y: 1, z: 1}
      m_SphereRadius: 3
      m_SphereBlendDistance: 0
      m_SphereBlendNormalDistance: 0
    proxy:
      m_CSVersion: 1
      m_ObsoleteSphereInfiniteProjection: 0
      m_ObsoleteBoxInfiniteProjection: 0
      m_Shape: 0
      m_BoxSize: {x: 1, y: 1, z: 1}
      m_SphereRadius: 1
    proxySettings:
      useInfluenceVolumeAsProxyVolume: 1
      capturePositionProxySpace: {x: -2.2351372e-10, y: 0, z: -0.0000004518032}
      captureRotationProxySpace: {x: 0, y: 0, z: 0, w: 1}
      mirrorPositionProxySpace: {x: 0, y: 0, z: 0}
      mirrorRotationProxySpace: {x: 0, y: 0, z: 0, w: 0}
    resolution: 512
    cameraSettings:
      customRenderingSettings: 0
      renderingPathCustomFrameSettings:
        bitDatas:
          data1: 69275665628957
          data2: 4539628424389459968
        lodBias: 1
        lodBiasMode: 0
        lodBiasQualityLevel: 0
        maximumLODLevel: 0
        maximumLODLevelMode: 0
        maximumLODLevelQualityLevel: 0
        materialQuality: 0
      renderingPathCustomFrameSettingsOverrideMask:
        mask:
          data1: 0
          data2: 0
      bufferClearing:
        clearColorMode: 0
        backgroundColorHDR: {r: 0.023529412, g: 0.07058824, b: 0.1882353, a: 0}
        clearDepth: 1
      volumes:
        layerMask:
          serializedVersion: 2
          m_Bits: 1
        anchorOverride: {fileID: 0}
      frustum:
        mode: 0
        aspect: 1
        farClipPlaneRaw: 1000
        nearClipPlaneRaw: 0.3
        fieldOfView: 90
        projectionMatrix:
          e00: 1
          e01: 0
          e02: 0
          e03: 0
          e10: 0
          e11: 1
          e12: 0
          e13: 0
          e20: 0
          e21: 0
          e22: 1
          e23: 0
          e30: 0
          e31: 0
          e32: 0
          e33: 1
      culling:
        useOcclusionCulling: 1
        cullingMask:
          serializedVersion: 2
          m_Bits: 4294967295
        sceneCullingMaskOverride: 0
      invertFaceCulling: 0
      flipYMode: 0
      probeLayerMask:
        serializedVersion: 2
        m_Bits: 4294967295
      defaultFrameSettings: 0
      m_ObsoleteRenderingPath: 0
      m_ObsoleteFrameSettings:
        overrides: 0
        enableShadow: 0
        enableContactShadows: 0
        enableShadowMask: 0
        enableSSR: 0
        enableSSAO: 0
        enableSubsurfaceScattering: 0
        enableTransmission: 0
        enableAtmosphericScattering: 0
        enableVolumetrics: 0
        enableReprojectionForVolumetrics: 0
        enableLightLayers: 0
        enableExposureControl: 1
        diffuseGlobalDimmer: 0
        specularGlobalDimmer: 0
        shaderLitMode: 0
        enableDepthPrepassWithDeferredRendering: 0
        enableTransparentPrepass: 0
        enableMotionVectors: 0
        enableObjectMotionVectors: 0
        enableDecals: 0
        enableRoughRefraction: 0
        enableTransparentPostpass: 0
        enableDistortion: 0
        enablePostprocess: 0
        enableOpaqueObjects: 0
        enableTransparentObjects: 0
        enableRealtimePlanarReflection: 0
        enableMSAA: 0
        enableAsyncCompute: 0
        runLightListAsync: 0
        runSSRAsync: 0
        runSSAOAsync: 0
        runContactShadowsAsync: 0
        runVolumeVoxelizationAsync: 0
        lightLoopSettings:
          overrides: 0
          enableDeferredTileAndCluster: 0
          enableComputeLightEvaluation: 0
          enableComputeLightVariants: 0
          enableComputeMaterialVariants: 0
          enableFptlForForwardOpaque: 0
          enableBigTilePrepass: 0
          isFptlEnabled: 0
  m_ProbeSettingsOverride:
    probe: 0
    camera:
      camera: 0
  m_ProxyVolume: {fileID: 0}
  m_BakedTexture: {fileID: 8900000, guid: 04128dad1bcf5164389f76307f4068a2, type: 3}
  m_CustomTexture: {fileID: 0}
  m_BakedRenderData:
    m_WorldToCameraRHS:
      e00: 0
      e01: 0
      e02: 0
      e03: 0
      e10: 0
      e11: 0
      e12: 0
      e13: 0
      e20: 0
      e21: 0
      e22: 0
      e23: 0
      e30: 0
      e31: 0
      e32: 0
      e33: 0
    m_ProjectionMatrix:
      e00: 0
      e01: 0
      e02: 0
      e03: 0
      e10: 0
      e11: 0
      e12: 0
      e13: 0
      e20: 0
      e21: 0
      e22: 0
      e23: 0
      e30: 0
      e31: 0
      e32: 0
      e33: 0
    m_CapturePosition: {x: 0, y: 0, z: 0}
    m_CaptureRotation: {x: 0, y: 0, z: 0, w: 0}
    m_FieldOfView: 0
    m_Aspect: 0
  m_CustomRenderData:
    m_WorldToCameraRHS:
      e00: 0
      e01: 0
      e02: 0
      e03: 0
      e10: 0
      e11: 0
      e12: 0
      e13: 0
      e20: 0
      e21: 0
      e22: 0
      e23: 0
      e30: 0
      e31: 0
      e32: 0
      e33: 0
    m_ProjectionMatrix:
      e00: 0
      e01: 0
      e02: 0
      e03: 0
      e10: 0
      e11: 0
      e12: 0
      e13: 0
      e20: 0
      e21: 0
      e22: 0
      e23: 0
      e30: 0
      e31: 0
      e32: 0
      e33: 0
    m_CapturePosition: {x: 0, y: 0, z: 0}
    m_CaptureRotation: {x: 0, y: 0, z: 0, w: 0}
    m_FieldOfView: 0
    m_Aspect: 0
  m_EditorOnlyData: 0
  m_ReflectionProbeVersion: 9
  m_ObsoleteInfluenceShape: 0
  m_ObsoleteInfluenceSphereRadius: 3
  m_ObsoleteBlendDistancePositive: {x: 0.1, y: 0.33046675, z: 0}
  m_ObsoleteBlendDistanceNegative: {x: 0, y: 0, z: 0.1}
  m_ObsoleteBlendNormalDistancePositive: {x: 0.1, y: 0, z: 0}
  m_ObsoleteBlendNormalDistanceNegative: {x: 0, y: 0, z: 0}
  m_ObsoleteBoxSideFadePositive: {x: 1, y: 1, z: 1}
  m_ObsoleteBoxSideFadeNegative: {x: 1, y: 1, z: 1}
--- !u!23 &168218575
MeshRenderer:
  m_ObjectHideFlags: 2
  m_CorrespondingSourceObject: {fileID: 0}
  m_PrefabInstance: {fileID: 0}
  m_PrefabAsset: {fileID: 0}
  m_GameObject: {fileID: 168218571}
  m_Enabled: 0
  m_CastShadows: 0
  m_ReceiveShadows: 1
  m_DynamicOccludee: 1
  m_MotionVectors: 2
  m_LightProbeUsage: 0
  m_ReflectionProbeUsage: 1
  m_RayTracingMode: 2
  m_RenderingLayerMask: 4294967295
  m_RendererPriority: 0
  m_Materials:
  - {fileID: 0}
  m_StaticBatchInfo:
    firstSubMesh: 0
    subMeshCount: 0
  m_StaticBatchRoot: {fileID: 0}
  m_ProbeAnchor: {fileID: 0}
  m_LightProbeVolumeOverride: {fileID: 0}
  m_ScaleInLightmap: 1
  m_ReceiveGI: 1
  m_PreserveUVs: 0
  m_IgnoreNormalsForChartDetection: 0
  m_ImportantGI: 0
  m_StitchLightmapSeams: 0
  m_SelectedEditorRenderState: 3
  m_MinimumChartSize: 4
  m_AutoUVMaxDistance: 0.5
  m_AutoUVMaxAngle: 89
  m_LightmapParameters: {fileID: 0}
  m_SortingLayerID: 0
  m_SortingLayer: 0
  m_SortingOrder: 0
--- !u!33 &168218576
MeshFilter:
  m_ObjectHideFlags: 2
  m_CorrespondingSourceObject: {fileID: 0}
  m_PrefabInstance: {fileID: 0}
  m_PrefabAsset: {fileID: 0}
  m_GameObject: {fileID: 168218571}
  m_Mesh: {fileID: 10207, guid: 0000000000000000e000000000000000, type: 0}
--- !u!1 &177311044
GameObject:
  m_ObjectHideFlags: 0
  m_CorrespondingSourceObject: {fileID: 0}
  m_PrefabInstance: {fileID: 0}
  m_PrefabAsset: {fileID: 0}
  serializedVersion: 6
  m_Component:
  - component: {fileID: 177311046}
  - component: {fileID: 177311045}
  m_Layer: 0
  m_Name: Sky and Fog Volume
  m_TagString: Untagged
  m_Icon: {fileID: 0}
  m_NavMeshLayer: 0
  m_StaticEditorFlags: 0
  m_IsActive: 1
--- !u!114 &177311045
MonoBehaviour:
  m_ObjectHideFlags: 0
  m_CorrespondingSourceObject: {fileID: 0}
  m_PrefabInstance: {fileID: 0}
  m_PrefabAsset: {fileID: 0}
  m_GameObject: {fileID: 177311044}
  m_Enabled: 1
  m_EditorHideFlags: 0
  m_Script: {fileID: 11500000, guid: 172515602e62fb746b5d573b38a5fe58, type: 3}
  m_Name: 
  m_EditorClassIdentifier: 
  isGlobal: 1
  priority: 0
  blendDistance: 0
  weight: 1
  sharedProfile: {fileID: 11400000, guid: a123fc0ac58cb774e8592c925f167e7c, type: 2}
--- !u!4 &177311046
Transform:
  m_ObjectHideFlags: 0
  m_CorrespondingSourceObject: {fileID: 0}
  m_PrefabInstance: {fileID: 0}
  m_PrefabAsset: {fileID: 0}
  m_GameObject: {fileID: 177311044}
  m_LocalRotation: {x: 0, y: 0, z: 0, w: 1}
  m_LocalPosition: {x: 0, y: 0, z: 0}
  m_LocalScale: {x: 1, y: 1, z: 1}
  m_Children: []
  m_Father: {fileID: 0}
  m_RootOrder: 2
  m_LocalEulerAnglesHint: {x: 0, y: 0, z: 0}
--- !u!1001 &300715998
PrefabInstance:
  m_ObjectHideFlags: 0
  serializedVersion: 2
  m_Modification:
    m_TransformParent: {fileID: 1444734336}
    m_Modifications:
    - target: {fileID: 4206792678894742, guid: 96fe51ca2266f2549bb3b93ac7b9eb5b, type: 3}
      propertyPath: m_LocalPosition.x
      value: 1.655252
      objectReference: {fileID: 0}
    - target: {fileID: 4206792678894742, guid: 96fe51ca2266f2549bb3b93ac7b9eb5b, type: 3}
      propertyPath: m_LocalPosition.y
      value: 0.30264044
      objectReference: {fileID: 0}
    - target: {fileID: 4206792678894742, guid: 96fe51ca2266f2549bb3b93ac7b9eb5b, type: 3}
      propertyPath: m_LocalPosition.z
      value: 1.0033283
      objectReference: {fileID: 0}
    - target: {fileID: 4206792678894742, guid: 96fe51ca2266f2549bb3b93ac7b9eb5b, type: 3}
      propertyPath: m_LocalRotation.x
      value: -0
      objectReference: {fileID: 0}
    - target: {fileID: 4206792678894742, guid: 96fe51ca2266f2549bb3b93ac7b9eb5b, type: 3}
      propertyPath: m_LocalRotation.y
      value: -0
      objectReference: {fileID: 0}
    - target: {fileID: 4206792678894742, guid: 96fe51ca2266f2549bb3b93ac7b9eb5b, type: 3}
      propertyPath: m_LocalRotation.z
      value: -0
      objectReference: {fileID: 0}
    - target: {fileID: 4206792678894742, guid: 96fe51ca2266f2549bb3b93ac7b9eb5b, type: 3}
      propertyPath: m_LocalRotation.w
      value: 1
      objectReference: {fileID: 0}
    - target: {fileID: 4206792678894742, guid: 96fe51ca2266f2549bb3b93ac7b9eb5b, type: 3}
      propertyPath: m_RootOrder
      value: 1
      objectReference: {fileID: 0}
    - target: {fileID: 114600619644317088, guid: 96fe51ca2266f2549bb3b93ac7b9eb5b,
        type: 3}
      propertyPath: m_Version
      value: 10
      objectReference: {fileID: 0}
    m_RemovedComponents: []
  m_SourcePrefab: {fileID: 100100000, guid: 96fe51ca2266f2549bb3b93ac7b9eb5b, type: 3}
--- !u!4 &300715999 stripped
Transform:
  m_CorrespondingSourceObject: {fileID: 4206792678894742, guid: 96fe51ca2266f2549bb3b93ac7b9eb5b,
    type: 3}
  m_PrefabInstance: {fileID: 300715998}
  m_PrefabAsset: {fileID: 0}
--- !u!1 &313761473
GameObject:
  m_ObjectHideFlags: 1
  m_CorrespondingSourceObject: {fileID: 0}
  m_PrefabInstance: {fileID: 0}
  m_PrefabAsset: {fileID: 0}
  serializedVersion: 6
  m_Component:
  - component: {fileID: 313761475}
  - component: {fileID: 313761474}
  m_Layer: 0
  m_Name: StaticLightingSky
  m_TagString: Untagged
  m_Icon: {fileID: 0}
  m_NavMeshLayer: 0
  m_StaticEditorFlags: 0
  m_IsActive: 1
--- !u!114 &313761474
MonoBehaviour:
  m_ObjectHideFlags: 1
  m_CorrespondingSourceObject: {fileID: 0}
  m_PrefabInstance: {fileID: 0}
  m_PrefabAsset: {fileID: 0}
  m_GameObject: {fileID: 313761473}
  m_Enabled: 1
  m_EditorHideFlags: 0
  m_Script: {fileID: 11500000, guid: 441482e8936e35048a1dffac814e3ef8, type: 3}
  m_Name: 
  m_EditorClassIdentifier: 
  m_Profile: {fileID: 11400000, guid: a123fc0ac58cb774e8592c925f167e7c, type: 2}
  m_StaticLightingSkyUniqueID: 1
  m_SkySettings: {fileID: 1708104166}
  m_SkySettingsFromProfile: {fileID: -1658960478407648048, guid: a123fc0ac58cb774e8592c925f167e7c,
    type: 2}
--- !u!4 &313761475
Transform:
  m_ObjectHideFlags: 1
  m_CorrespondingSourceObject: {fileID: 0}
  m_PrefabInstance: {fileID: 0}
  m_PrefabAsset: {fileID: 0}
  m_GameObject: {fileID: 313761473}
  m_LocalRotation: {x: 0, y: 0, z: 0, w: 1}
  m_LocalPosition: {x: 0, y: 0, z: 0}
  m_LocalScale: {x: 1, y: 1, z: 1}
  m_Children: []
  m_Father: {fileID: 0}
  m_RootOrder: 6
  m_LocalEulerAnglesHint: {x: 0, y: 0, z: 0}
--- !u!1 &405591764
GameObject:
  m_ObjectHideFlags: 0
  m_CorrespondingSourceObject: {fileID: 1236741982080262, guid: b99944bf0f66a4643ac9a98799610529,
    type: 2}
  m_PrefabInstance: {fileID: 0}
  m_PrefabAsset: {fileID: 0}
  serializedVersion: 6
  m_Component:
  - component: {fileID: 405591765}
  m_Layer: 0
  m_Name: Reflection Probes
  m_TagString: Untagged
  m_Icon: {fileID: 0}
  m_NavMeshLayer: 0
  m_StaticEditorFlags: 0
  m_IsActive: 1
--- !u!4 &405591765
Transform:
  m_ObjectHideFlags: 0
  m_CorrespondingSourceObject: {fileID: 4520442204395672, guid: b99944bf0f66a4643ac9a98799610529,
    type: 2}
  m_PrefabInstance: {fileID: 0}
  m_PrefabAsset: {fileID: 0}
  m_GameObject: {fileID: 405591764}
  m_LocalRotation: {x: -0, y: -0, z: -0, w: 1}
  m_LocalPosition: {x: 0, y: 0, z: 0}
  m_LocalScale: {x: 1, y: 1, z: 1}
  m_Children:
  - {fileID: 168218572}
  - {fileID: 1037846704}
  - {fileID: 2059789767}
  m_Father: {fileID: 1444734336}
  m_RootOrder: 2
  m_LocalEulerAnglesHint: {x: 0, y: 90, z: 0}
--- !u!1 &581876909
GameObject:
  m_ObjectHideFlags: 0
  m_CorrespondingSourceObject: {fileID: 0}
  m_PrefabInstance: {fileID: 0}
  m_PrefabAsset: {fileID: 0}
  serializedVersion: 6
  m_Component:
  - component: {fileID: 581876911}
  - component: {fileID: 581876910}
  - component: {fileID: 581876912}
  m_Layer: 0
  m_Name: Post Process Volume
  m_TagString: Untagged
  m_Icon: {fileID: 0}
  m_NavMeshLayer: 0
  m_StaticEditorFlags: 0
  m_IsActive: 1
--- !u!114 &581876910
MonoBehaviour:
  m_ObjectHideFlags: 0
  m_CorrespondingSourceObject: {fileID: 0}
  m_PrefabInstance: {fileID: 0}
  m_PrefabAsset: {fileID: 0}
  m_GameObject: {fileID: 581876909}
  m_Enabled: 1
  m_EditorHideFlags: 0
  m_Script: {fileID: 11500000, guid: 172515602e62fb746b5d573b38a5fe58, type: 3}
  m_Name: 
  m_EditorClassIdentifier: 
  isGlobal: 1
  priority: 0
  blendDistance: 0
  weight: 1
  sharedProfile: {fileID: 11400000, guid: 183cbd347d25080429f42b520742bbd8, type: 2}
--- !u!4 &581876911
Transform:
  m_ObjectHideFlags: 0
  m_CorrespondingSourceObject: {fileID: 0}
  m_PrefabInstance: {fileID: 0}
  m_PrefabAsset: {fileID: 0}
  m_GameObject: {fileID: 581876909}
  m_LocalRotation: {x: 0, y: 0, z: 0, w: 1}
  m_LocalPosition: {x: 0, y: 1, z: 2}
  m_LocalScale: {x: 1, y: 1, z: 1}
  m_Children: []
  m_Father: {fileID: 0}
  m_RootOrder: 3
  m_LocalEulerAnglesHint: {x: 0, y: 0, z: 0}
--- !u!114 &581876912
MonoBehaviour:
  m_ObjectHideFlags: 0
  m_CorrespondingSourceObject: {fileID: 0}
  m_PrefabInstance: {fileID: 0}
  m_PrefabAsset: {fileID: 0}
  m_GameObject: {fileID: 581876909}
  m_Enabled: 1
  m_EditorHideFlags: 0
  m_Script: {fileID: 11500000, guid: 8b9a305e18de0c04dbd257a21cd47087, type: 3}
  m_Name: 
  m_EditorClassIdentifier: 
  sharedProfile: {fileID: 0}
  isGlobal: 1
  blendDistance: 0
  weight: 1
  priority: 0
--- !u!1 &1037846703
GameObject:
  m_ObjectHideFlags: 0
  m_CorrespondingSourceObject: {fileID: 1357851256217384, guid: b99944bf0f66a4643ac9a98799610529,
    type: 2}
  m_PrefabInstance: {fileID: 0}
  m_PrefabAsset: {fileID: 0}
  serializedVersion: 6
  m_Component:
  - component: {fileID: 1037846704}
  - component: {fileID: 1037846705}
  - component: {fileID: 1037846708}
  - component: {fileID: 1037846707}
  - component: {fileID: 1037846706}
  m_Layer: 0
  m_Name: Reflection Probe Behind Wall
  m_TagString: Untagged
  m_Icon: {fileID: 0}
  m_NavMeshLayer: 0
  m_StaticEditorFlags: 0
  m_IsActive: 1
--- !u!4 &1037846704
Transform:
  m_ObjectHideFlags: 0
  m_CorrespondingSourceObject: {fileID: 4747382904500044, guid: b99944bf0f66a4643ac9a98799610529,
    type: 2}
  m_PrefabInstance: {fileID: 0}
  m_PrefabAsset: {fileID: 0}
  m_GameObject: {fileID: 1037846703}
  m_LocalRotation: {x: -0, y: -0, z: -0, w: 1}
  m_LocalPosition: {x: 0.019999983, y: 1.196, z: -0.68700755}
  m_LocalScale: {x: 1, y: 1, z: 1}
  m_Children: []
  m_Father: {fileID: 405591765}
  m_RootOrder: 1
  m_LocalEulerAnglesHint: {x: 0, y: 0, z: 0}
--- !u!215 &1037846705
ReflectionProbe:
  m_ObjectHideFlags: 0
  m_CorrespondingSourceObject: {fileID: 215733808325173316, guid: b99944bf0f66a4643ac9a98799610529,
    type: 2}
  m_PrefabInstance: {fileID: 0}
  m_PrefabAsset: {fileID: 0}
  m_GameObject: {fileID: 1037846703}
  m_Enabled: 1
  serializedVersion: 2
  m_Type: 0
  m_Mode: 2
  m_RefreshMode: 2
  m_TimeSlicingMode: 0
  m_Resolution: 256
  m_UpdateFrequency: 0
  m_BoxSize: {x: 3.7381597, y: 2.5, z: 1.25}
  m_BoxOffset: {x: 0, y: 0, z: 0}
  m_NearClip: 0.3
  m_FarClip: 1000
  m_ShadowDistance: 100
  m_ClearFlags: 1
  m_BackGroundColor: {r: 0.19215687, g: 0.3019608, b: 0.4745098, a: 0}
  m_CullingMask:
    serializedVersion: 2
    m_Bits: 4294967295
  m_IntensityMultiplier: 1
  m_BlendDistance: 0
  m_HDR: 1
  m_BoxProjection: 0
  m_RenderDynamicObjects: 0
  m_UseOcclusionCulling: 1
  m_Importance: 1
  m_CustomBakedTexture: {fileID: 0}
--- !u!114 &1037846706
MonoBehaviour:
  m_ObjectHideFlags: 0
  m_CorrespondingSourceObject: {fileID: 0}
  m_PrefabInstance: {fileID: 0}
  m_PrefabAsset: {fileID: 0}
  m_GameObject: {fileID: 1037846703}
  m_Enabled: 1
  m_EditorHideFlags: 0
  m_Script: {fileID: 11500000, guid: d0ef8dc2c2eabfa4e8cb77be57a837c0, type: 3}
  m_Name: 
  m_EditorClassIdentifier: 
  m_HDProbeVersion: 3
  m_ObsoleteInfiniteProjection: 0
  m_ObsoleteInfluenceVolume:
    m_EditorAdvancedModeBlendDistancePositive: {x: 0, y: 0, z: 0}
    m_EditorAdvancedModeBlendDistanceNegative: {x: 0, y: 0, z: 0}
    m_EditorSimplifiedModeBlendDistance: 0
    m_EditorAdvancedModeBlendNormalDistancePositive: {x: 0, y: 0, z: 0}
    m_EditorAdvancedModeBlendNormalDistanceNegative: {x: 0, y: 0, z: 0}
    m_EditorSimplifiedModeBlendNormalDistance: 0
    m_EditorAdvancedModeEnabled: 0
    m_EditorAdvancedModeFaceFadePositive: {x: 1, y: 1, z: 1}
    m_EditorAdvancedModeFaceFadeNegative: {x: 1, y: 1, z: 1}
    m_Version: 1
    m_ObsoleteSphereBaseOffset: {x: 0, y: 0, z: 0}
    m_ObsoleteOffset: {x: 0, y: 0, z: 0}
    m_Shape: 0
    m_BoxSize: {x: 3.7381597, y: 2.5, z: 1.25}
    m_BoxBlendDistancePositive: {x: 0, y: 0, z: 0}
    m_BoxBlendDistanceNegative: {x: 0, y: 0, z: 0}
    m_BoxBlendNormalDistancePositive: {x: 0, y: 0, z: 0}
    m_BoxBlendNormalDistanceNegative: {x: 0, y: 0, z: 0}
    m_BoxSideFadePositive: {x: 1, y: 1, z: 1}
    m_BoxSideFadeNegative: {x: 1, y: 1, z: 1}
    m_SphereRadius: 3
    m_SphereBlendDistance: 0
    m_SphereBlendNormalDistance: 0
  m_ObsoleteFrameSettings:
    overrides: 0
    enableShadow: 1
    enableContactShadows: 1
    enableShadowMask: 1
    enableSSR: 0
    enableSSAO: 1
    enableSubsurfaceScattering: 1
    enableTransmission: 1
    enableAtmosphericScattering: 1
    enableVolumetrics: 1
    enableReprojectionForVolumetrics: 1
    enableLightLayers: 1
    enableExposureControl: 1
    diffuseGlobalDimmer: 1
    specularGlobalDimmer: 1
    shaderLitMode: 1
    enableDepthPrepassWithDeferredRendering: 0
    enableTransparentPrepass: 1
    enableMotionVectors: 1
    enableObjectMotionVectors: 1
    enableDecals: 1
    enableRoughRefraction: 1
    enableTransparentPostpass: 1
    enableDistortion: 1
    enablePostprocess: 1
    enableOpaqueObjects: 1
    enableTransparentObjects: 1
    enableRealtimePlanarReflection: 1
    enableMSAA: 0
    enableAsyncCompute: 1
    runLightListAsync: 1
    runSSRAsync: 1
    runSSAOAsync: 1
    runContactShadowsAsync: 1
    runVolumeVoxelizationAsync: 1
    lightLoopSettings:
      overrides: 0
      enableDeferredTileAndCluster: 1
      enableComputeLightEvaluation: 1
      enableComputeLightVariants: 1
      enableComputeMaterialVariants: 1
      enableFptlForForwardOpaque: 1
      enableBigTilePrepass: 1
      isFptlEnabled: 1
  m_ObsoleteMultiplier: 1
  m_ObsoleteWeight: 1
  m_ObsoleteMode: 0
  m_ObsoleteLightLayers: 1
  m_ObsoleteCaptureSettings:
    overrides: 0
    clearColorMode: 0
    backgroundColorHDR: {r: 0.023529412, g: 0.07058824, b: 0.1882353, a: 0}
    clearDepth: 1
    cullingMask:
      serializedVersion: 2
      m_Bits: 4294967295
    useOcclusionCulling: 1
    volumeLayerMask:
      serializedVersion: 2
      m_Bits: 4294967295
    volumeAnchorOverride: {fileID: 0}
    projection: 0
    nearClipPlane: 0.3
    farClipPlane: 1000
    fieldOfView: 90
    orthographicSize: 5
    renderingPath: 0
    shadowDistance: 100
  m_ProbeSettings:
    frustum:
      fieldOfViewMode: 1
      fixedValue: 90
      automaticScale: 1
      viewerScale: 1
    type: 0
    mode: 0
    realtimeMode: 0
    lighting:
      multiplier: 1
      weight: 1
      lightLayer: 1
      fadeDistance: 10000
      rangeCompressionFactor: 1
    influence:
      m_EditorAdvancedModeBlendDistancePositive: {x: 0, y: 0, z: 0}
      m_EditorAdvancedModeBlendDistanceNegative: {x: 0, y: 0, z: 0}
      m_EditorSimplifiedModeBlendDistance: 0
      m_EditorAdvancedModeBlendNormalDistancePositive: {x: 0, y: 0, z: 0}
      m_EditorAdvancedModeBlendNormalDistanceNegative: {x: 0, y: 0, z: 0}
      m_EditorSimplifiedModeBlendNormalDistance: 0
      m_EditorAdvancedModeEnabled: 0
      m_EditorAdvancedModeFaceFadePositive: {x: 1, y: 1, z: 1}
      m_EditorAdvancedModeFaceFadeNegative: {x: 1, y: 1, z: 1}
      m_Version: 1
      m_ObsoleteSphereBaseOffset: {x: 0, y: 0, z: 0}
      m_ObsoleteOffset: {x: 0, y: 0, z: 0}
      m_Shape: 0
      m_BoxSize: {x: 3.7381597, y: 2.5, z: 1.25}
      m_BoxBlendDistancePositive: {x: 0, y: 0, z: 0}
      m_BoxBlendDistanceNegative: {x: 0, y: 0, z: 0}
      m_BoxBlendNormalDistancePositive: {x: 0, y: 0, z: 0}
      m_BoxBlendNormalDistanceNegative: {x: 0, y: 0, z: 0}
      m_BoxSideFadePositive: {x: 1, y: 1, z: 1}
      m_BoxSideFadeNegative: {x: 1, y: 1, z: 1}
      m_SphereRadius: 3
      m_SphereBlendDistance: 0
      m_SphereBlendNormalDistance: 0
    proxy:
      m_CSVersion: 1
      m_ObsoleteSphereInfiniteProjection: 0
      m_ObsoleteBoxInfiniteProjection: 0
      m_Shape: 0
      m_BoxSize: {x: 1, y: 1, z: 1}
      m_SphereRadius: 1
    proxySettings:
      useInfluenceVolumeAsProxyVolume: 1
      capturePositionProxySpace: {x: -5.8120087e-10, y: 0, z: 0.00000014388556}
      captureRotationProxySpace: {x: 0, y: 0, z: 0, w: 1}
      mirrorPositionProxySpace: {x: 0, y: 0, z: 0}
      mirrorRotationProxySpace: {x: 0, y: 0, z: 0, w: 0}
    resolution: 512
    cameraSettings:
      customRenderingSettings: 0
      renderingPathCustomFrameSettings:
        bitDatas:
          data1: 69275665628957
          data2: 4539628424389459968
        lodBias: 1
        lodBiasMode: 0
        lodBiasQualityLevel: 0
        maximumLODLevel: 0
        maximumLODLevelMode: 0
        maximumLODLevelQualityLevel: 0
        materialQuality: 0
      renderingPathCustomFrameSettingsOverrideMask:
        mask:
          data1: 0
          data2: 0
      bufferClearing:
        clearColorMode: 0
        backgroundColorHDR: {r: 0.023529412, g: 0.07058824, b: 0.1882353, a: 0}
        clearDepth: 1
      volumes:
        layerMask:
          serializedVersion: 2
          m_Bits: 1
        anchorOverride: {fileID: 0}
      frustum:
        mode: 0
        aspect: 1
        farClipPlaneRaw: 1000
        nearClipPlaneRaw: 0.3
        fieldOfView: 90
        projectionMatrix:
          e00: 1
          e01: 0
          e02: 0
          e03: 0
          e10: 0
          e11: 1
          e12: 0
          e13: 0
          e20: 0
          e21: 0
          e22: 1
          e23: 0
          e30: 0
          e31: 0
          e32: 0
          e33: 1
      culling:
        useOcclusionCulling: 1
        cullingMask:
          serializedVersion: 2
          m_Bits: 4294967295
        sceneCullingMaskOverride: 0
      invertFaceCulling: 0
      flipYMode: 0
      probeLayerMask:
        serializedVersion: 2
        m_Bits: 4294967295
      defaultFrameSettings: 0
      m_ObsoleteRenderingPath: 0
      m_ObsoleteFrameSettings:
        overrides: 0
        enableShadow: 0
        enableContactShadows: 0
        enableShadowMask: 0
        enableSSR: 0
        enableSSAO: 0
        enableSubsurfaceScattering: 0
        enableTransmission: 0
        enableAtmosphericScattering: 0
        enableVolumetrics: 0
        enableReprojectionForVolumetrics: 0
        enableLightLayers: 0
        enableExposureControl: 1
        diffuseGlobalDimmer: 0
        specularGlobalDimmer: 0
        shaderLitMode: 0
        enableDepthPrepassWithDeferredRendering: 0
        enableTransparentPrepass: 0
        enableMotionVectors: 0
        enableObjectMotionVectors: 0
        enableDecals: 0
        enableRoughRefraction: 0
        enableTransparentPostpass: 0
        enableDistortion: 0
        enablePostprocess: 0
        enableOpaqueObjects: 0
        enableTransparentObjects: 0
        enableRealtimePlanarReflection: 0
        enableMSAA: 0
        enableAsyncCompute: 0
        runLightListAsync: 0
        runSSRAsync: 0
        runSSAOAsync: 0
        runContactShadowsAsync: 0
        runVolumeVoxelizationAsync: 0
        lightLoopSettings:
          overrides: 0
          enableDeferredTileAndCluster: 0
          enableComputeLightEvaluation: 0
          enableComputeLightVariants: 0
          enableComputeMaterialVariants: 0
          enableFptlForForwardOpaque: 0
          enableBigTilePrepass: 0
          isFptlEnabled: 0
  m_ProbeSettingsOverride:
    probe: 0
    camera:
      camera: 0
  m_ProxyVolume: {fileID: 0}
  m_BakedTexture: {fileID: 8900000, guid: 3dacf31294e808941b9dbbb4ac22a151, type: 3}
  m_CustomTexture: {fileID: 0}
  m_BakedRenderData:
    m_WorldToCameraRHS:
      e00: 0
      e01: 0
      e02: 0
      e03: 0
      e10: 0
      e11: 0
      e12: 0
      e13: 0
      e20: 0
      e21: 0
      e22: 0
      e23: 0
      e30: 0
      e31: 0
      e32: 0
      e33: 0
    m_ProjectionMatrix:
      e00: 0
      e01: 0
      e02: 0
      e03: 0
      e10: 0
      e11: 0
      e12: 0
      e13: 0
      e20: 0
      e21: 0
      e22: 0
      e23: 0
      e30: 0
      e31: 0
      e32: 0
      e33: 0
    m_CapturePosition: {x: 0, y: 0, z: 0}
    m_CaptureRotation: {x: 0, y: 0, z: 0, w: 0}
    m_FieldOfView: 0
    m_Aspect: 0
  m_CustomRenderData:
    m_WorldToCameraRHS:
      e00: 0
      e01: 0
      e02: 0
      e03: 0
      e10: 0
      e11: 0
      e12: 0
      e13: 0
      e20: 0
      e21: 0
      e22: 0
      e23: 0
      e30: 0
      e31: 0
      e32: 0
      e33: 0
    m_ProjectionMatrix:
      e00: 0
      e01: 0
      e02: 0
      e03: 0
      e10: 0
      e11: 0
      e12: 0
      e13: 0
      e20: 0
      e21: 0
      e22: 0
      e23: 0
      e30: 0
      e31: 0
      e32: 0
      e33: 0
    m_CapturePosition: {x: 0, y: 0, z: 0}
    m_CaptureRotation: {x: 0, y: 0, z: 0, w: 0}
    m_FieldOfView: 0
    m_Aspect: 0
  m_EditorOnlyData: 0
  m_ReflectionProbeVersion: 9
  m_ObsoleteInfluenceShape: 0
  m_ObsoleteInfluenceSphereRadius: 3
  m_ObsoleteBlendDistancePositive: {x: 0, y: 0, z: 0}
  m_ObsoleteBlendDistanceNegative: {x: 0, y: 0, z: 0}
  m_ObsoleteBlendNormalDistancePositive: {x: 0, y: 0, z: 0}
  m_ObsoleteBlendNormalDistanceNegative: {x: 0, y: 0, z: 0}
  m_ObsoleteBoxSideFadePositive: {x: 1, y: 1, z: 1}
  m_ObsoleteBoxSideFadeNegative: {x: 1, y: 1, z: 1}
--- !u!23 &1037846707
MeshRenderer:
  m_ObjectHideFlags: 2
  m_CorrespondingSourceObject: {fileID: 0}
  m_PrefabInstance: {fileID: 0}
  m_PrefabAsset: {fileID: 0}
  m_GameObject: {fileID: 1037846703}
  m_Enabled: 0
  m_CastShadows: 0
  m_ReceiveShadows: 1
  m_DynamicOccludee: 1
  m_MotionVectors: 2
  m_LightProbeUsage: 0
  m_ReflectionProbeUsage: 1
  m_RayTracingMode: 2
  m_RenderingLayerMask: 4294967295
  m_RendererPriority: 0
  m_Materials:
  - {fileID: 0}
  m_StaticBatchInfo:
    firstSubMesh: 0
    subMeshCount: 0
  m_StaticBatchRoot: {fileID: 0}
  m_ProbeAnchor: {fileID: 0}
  m_LightProbeVolumeOverride: {fileID: 0}
  m_ScaleInLightmap: 1
  m_ReceiveGI: 1
  m_PreserveUVs: 0
  m_IgnoreNormalsForChartDetection: 0
  m_ImportantGI: 0
  m_StitchLightmapSeams: 0
  m_SelectedEditorRenderState: 3
  m_MinimumChartSize: 4
  m_AutoUVMaxDistance: 0.5
  m_AutoUVMaxAngle: 89
  m_LightmapParameters: {fileID: 0}
  m_SortingLayerID: 0
  m_SortingLayer: 0
  m_SortingOrder: 0
--- !u!33 &1037846708
MeshFilter:
  m_ObjectHideFlags: 2
  m_CorrespondingSourceObject: {fileID: 0}
  m_PrefabInstance: {fileID: 0}
  m_PrefabAsset: {fileID: 0}
  m_GameObject: {fileID: 1037846703}
  m_Mesh: {fileID: 10207, guid: 0000000000000000e000000000000000, type: 0}
--- !u!1001 &1275443619
PrefabInstance:
  m_ObjectHideFlags: 0
  serializedVersion: 2
  m_Modification:
    m_TransformParent: {fileID: 1444734336}
    m_Modifications:
    - target: {fileID: 4277498391999412, guid: ca2a18daa91a3b04ca17d8b3c0c192d8, type: 3}
      propertyPath: m_LocalPosition.x
      value: 0
      objectReference: {fileID: 0}
    - target: {fileID: 4277498391999412, guid: ca2a18daa91a3b04ca17d8b3c0c192d8, type: 3}
      propertyPath: m_LocalPosition.y
      value: 0
      objectReference: {fileID: 0}
    - target: {fileID: 4277498391999412, guid: ca2a18daa91a3b04ca17d8b3c0c192d8, type: 3}
      propertyPath: m_LocalPosition.z
      value: 0
      objectReference: {fileID: 0}
    - target: {fileID: 4277498391999412, guid: ca2a18daa91a3b04ca17d8b3c0c192d8, type: 3}
      propertyPath: m_LocalRotation.x
      value: -0
      objectReference: {fileID: 0}
    - target: {fileID: 4277498391999412, guid: ca2a18daa91a3b04ca17d8b3c0c192d8, type: 3}
      propertyPath: m_LocalRotation.y
      value: -0
      objectReference: {fileID: 0}
    - target: {fileID: 4277498391999412, guid: ca2a18daa91a3b04ca17d8b3c0c192d8, type: 3}
      propertyPath: m_LocalRotation.z
      value: -0
      objectReference: {fileID: 0}
    - target: {fileID: 4277498391999412, guid: ca2a18daa91a3b04ca17d8b3c0c192d8, type: 3}
      propertyPath: m_LocalRotation.w
      value: 1
      objectReference: {fileID: 0}
    - target: {fileID: 4277498391999412, guid: ca2a18daa91a3b04ca17d8b3c0c192d8, type: 3}
      propertyPath: m_RootOrder
      value: 0
      objectReference: {fileID: 0}
    m_RemovedComponents: []
  m_SourcePrefab: {fileID: 100100000, guid: ca2a18daa91a3b04ca17d8b3c0c192d8, type: 3}
--- !u!4 &1275443620 stripped
Transform:
  m_CorrespondingSourceObject: {fileID: 4277498391999412, guid: ca2a18daa91a3b04ca17d8b3c0c192d8,
    type: 3}
  m_PrefabInstance: {fileID: 1275443619}
  m_PrefabAsset: {fileID: 0}
--- !u!1 &1297650280
GameObject:
  m_ObjectHideFlags: 0
  m_CorrespondingSourceObject: {fileID: 0}
  m_PrefabInstance: {fileID: 0}
  m_PrefabAsset: {fileID: 0}
  serializedVersion: 6
  m_Component:
  - component: {fileID: 1297650284}
  - component: {fileID: 1297650283}
  - component: {fileID: 1297650281}
  - component: {fileID: 1297650287}
  - component: {fileID: 1297650282}
  - component: {fileID: 1297650285}
  m_Layer: 0
  m_Name: Main Camera
  m_TagString: MainCamera
  m_Icon: {fileID: 0}
  m_NavMeshLayer: 0
  m_StaticEditorFlags: 0
  m_IsActive: 1
--- !u!81 &1297650281
AudioListener:
  m_ObjectHideFlags: 0
  m_CorrespondingSourceObject: {fileID: 0}
  m_PrefabInstance: {fileID: 0}
  m_PrefabAsset: {fileID: 0}
  m_GameObject: {fileID: 1297650280}
  m_Enabled: 1
--- !u!114 &1297650282
MonoBehaviour:
  m_ObjectHideFlags: 0
  m_CorrespondingSourceObject: {fileID: 0}
  m_PrefabInstance: {fileID: 0}
  m_PrefabAsset: {fileID: 0}
  m_GameObject: {fileID: 1297650280}
  m_Enabled: 1
  m_EditorHideFlags: 0
  m_Script: {fileID: 11500000, guid: 23c1ce4fb46143f46bc5cb5224c934f6, type: 3}
  m_Name: 
  m_EditorClassIdentifier: 
  m_Version: 7
  m_ObsoleteRenderingPath: 0
  m_ObsoleteFrameSettings:
    overrides: 0
    enableShadow: 0
    enableContactShadows: 0
    enableShadowMask: 0
    enableSSR: 0
    enableSSAO: 0
    enableSubsurfaceScattering: 0
    enableTransmission: 0
    enableAtmosphericScattering: 0
    enableVolumetrics: 0
    enableReprojectionForVolumetrics: 0
    enableLightLayers: 0
    enableExposureControl: 1
    diffuseGlobalDimmer: 0
    specularGlobalDimmer: 0
    shaderLitMode: 0
    enableDepthPrepassWithDeferredRendering: 0
    enableTransparentPrepass: 0
    enableMotionVectors: 0
    enableObjectMotionVectors: 0
    enableDecals: 0
    enableRoughRefraction: 0
    enableTransparentPostpass: 0
    enableDistortion: 0
    enablePostprocess: 0
    enableOpaqueObjects: 0
    enableTransparentObjects: 0
    enableRealtimePlanarReflection: 0
    enableMSAA: 0
    enableAsyncCompute: 0
    runLightListAsync: 0
    runSSRAsync: 0
    runSSAOAsync: 0
    runContactShadowsAsync: 0
    runVolumeVoxelizationAsync: 0
    lightLoopSettings:
      overrides: 0
      enableDeferredTileAndCluster: 0
      enableComputeLightEvaluation: 0
      enableComputeLightVariants: 0
      enableComputeMaterialVariants: 0
      enableFptlForForwardOpaque: 0
      enableBigTilePrepass: 0
      isFptlEnabled: 0
  clearColorMode: 0
  backgroundColorHDR: {r: 0.025, g: 0.07, b: 0.19, a: 0}
  clearDepth: 1
  volumeLayerMask:
    serializedVersion: 2
    m_Bits: 1
  volumeAnchorOverride: {fileID: 0}
  antialiasing: 2
  SMAAQuality: 2
  dithering: 1
  stopNaNs: 0
  taaSharpenStrength: 0.6
  physicalParameters:
    m_Iso: 200
    m_ShutterSpeed: 0.005
    m_Aperture: 16
    m_BladeCount: 5
    m_Curvature: {x: 2, y: 11}
    m_BarrelClipping: 0.25
    m_Anamorphism: 0
  flipYMode: 0
  fullscreenPassthrough: 0
  allowDynamicResolution: 0
  customRenderingSettings: 0
  invertFaceCulling: 0
  probeLayerMask:
    serializedVersion: 2
    m_Bits: 4294967295
  hasPersistentHistory: 0
  m_RenderingPathCustomFrameSettings:
    bitDatas:
      data1: 68906302766941
      data2: 4539628424389459968
    lodBias: 1
    lodBiasMode: 0
    lodBiasQualityLevel: 0
    maximumLODLevel: 0
    maximumLODLevelMode: 0
    maximumLODLevelQualityLevel: 0
    materialQuality: 0
  renderingPathCustomFrameSettingsOverrideMask:
    mask:
      data1: 0
      data2: 0
  defaultFrameSettings: 0
--- !u!20 &1297650283
Camera:
  m_ObjectHideFlags: 0
  m_CorrespondingSourceObject: {fileID: 0}
  m_PrefabInstance: {fileID: 0}
  m_PrefabAsset: {fileID: 0}
  m_GameObject: {fileID: 1297650280}
  m_Enabled: 1
  serializedVersion: 2
  m_ClearFlags: 1
  m_BackGroundColor: {r: 0.19215687, g: 0.3019608, b: 0.4745098, a: 0}
  m_projectionMatrixMode: 2
  m_GateFitMode: 2
  m_FOVAxisMode: 1
  m_SensorSize: {x: 36, y: 24}
  m_LensShift: {x: 0, y: 0}
  m_FocalLength: 18
  m_NormalizedViewPortRect:
    serializedVersion: 2
    x: 0
    y: 0
    width: 1
    height: 1
  near clip plane: 0.3
  far clip plane: 1000
  field of view: 67.380135
  orthographic: 0
  orthographic size: 5
  m_Depth: -1
  m_CullingMask:
    serializedVersion: 2
    m_Bits: 4294967295
  m_RenderingPath: -1
  m_TargetTexture: {fileID: 0}
  m_TargetDisplay: 0
  m_TargetEye: 3
  m_HDR: 0
  m_AllowMSAA: 0
  m_AllowDynamicResolution: 0
  m_ForceIntoRT: 1
  m_OcclusionCulling: 1
  m_StereoConvergence: 10
  m_StereoSeparation: 0.022
--- !u!4 &1297650284
Transform:
  m_ObjectHideFlags: 0
  m_CorrespondingSourceObject: {fileID: 0}
  m_PrefabInstance: {fileID: 0}
  m_PrefabAsset: {fileID: 0}
  m_GameObject: {fileID: 1297650280}
  m_LocalRotation: {x: 0, y: 0, z: 0, w: 1}
  m_LocalPosition: {x: 0, y: 0, z: -3.79}
  m_LocalScale: {x: 1, y: 1, z: 1}
  m_Children: []
  m_Father: {fileID: 0}
  m_RootOrder: 0
  m_LocalEulerAnglesHint: {x: 0, y: 0, z: 0}
--- !u!114 &1297650285
MonoBehaviour:
  m_ObjectHideFlags: 0
  m_CorrespondingSourceObject: {fileID: 0}
  m_PrefabInstance: {fileID: 0}
  m_PrefabAsset: {fileID: 0}
  m_GameObject: {fileID: 1297650280}
  m_Enabled: 1
  m_EditorHideFlags: 0
  m_Script: {fileID: 11500000, guid: 948f4100a11a5c24981795d21301da5c, type: 3}
  m_Name: 
  m_EditorClassIdentifier: 
  volumeTrigger: {fileID: 1297650284}
  volumeLayer:
    serializedVersion: 2
    m_Bits: 256
  stopNaNPropagation: 1
  finalBlitToCameraTarget: 0
  antialiasingMode: 0
  temporalAntialiasing:
    jitterSpread: 0.75
    sharpness: 0.25
    stationaryBlending: 0.95
    motionBlending: 0.85
  subpixelMorphologicalAntialiasing:
    quality: 2
  fastApproximateAntialiasing:
    fastMode: 0
    keepAlpha: 0
  fog:
    enabled: 1
    excludeSkybox: 1
  debugLayer:
    lightMeter:
      width: 512
      height: 256
      showCurves: 1
    histogram:
      width: 512
      height: 256
      channel: 3
    waveform:
      exposure: 0.12
      height: 256
    vectorscope:
      size: 256
      exposure: 0.12
    overlaySettings:
      linearDepth: 0
      motionColorIntensity: 4
      motionGridSize: 64
      colorBlindnessType: 0
      colorBlindnessStrength: 1
  m_Resources: {fileID: 11400000, guid: d82512f9c8e5d4a4d938b575d47f88d4, type: 2}
  m_ShowToolkit: 0
  m_ShowCustomSorter: 0
  breakBeforeColorGrading: 0
  m_BeforeTransparentBundles: []
  m_BeforeStackBundles: []
  m_AfterStackBundles: []
--- !u!114 &1297650287
MonoBehaviour:
  m_ObjectHideFlags: 0
  m_CorrespondingSourceObject: {fileID: 0}
  m_PrefabInstance: {fileID: 0}
  m_PrefabAsset: {fileID: 0}
  m_GameObject: {fileID: 1297650280}
  m_Enabled: 1
  m_EditorHideFlags: 0
  m_Script: {fileID: 11500000, guid: e8a636f62116c0a40bbfefdf876d4608, type: 3}
  m_Name: 
  m_EditorClassIdentifier: 
  boost: 3.5
  positionLerpTime: 0.2
  mouseSensitivityCurve:
    serializedVersion: 2
    m_Curve:
    - serializedVersion: 3
      time: 0
      value: 0.5
      inSlope: 4.6264863
      outSlope: 4.6264863
      tangentMode: 0
      weightedMode: 0
      inWeight: 0
      outWeight: 0.11557238
    - serializedVersion: 3
      time: 1
      value: 2.5
      inSlope: 0
      outSlope: 0
      tangentMode: 0
      weightedMode: 0
      inWeight: 0
      outWeight: 0
    m_PreInfinity: 2
    m_PostInfinity: 2
    m_RotationOrder: 4
  rotationLerpTime: 0.01
  invertY: 0
--- !u!1 &1444734335
GameObject:
  m_ObjectHideFlags: 0
  m_CorrespondingSourceObject: {fileID: 1663759634160148, guid: 4d20b4d205c659c40b121e56bff820b0,
    type: 2}
  m_PrefabInstance: {fileID: 0}
  m_PrefabAsset: {fileID: 0}
  serializedVersion: 6
  m_Component:
  - component: {fileID: 1444734336}
  m_Layer: 0
  m_Name: Example Assets
  m_TagString: Untagged
  m_Icon: {fileID: 0}
  m_NavMeshLayer: 0
  m_StaticEditorFlags: 0
  m_IsActive: 0
--- !u!4 &1444734336
Transform:
  m_ObjectHideFlags: 0
  m_CorrespondingSourceObject: {fileID: 4694336604991242, guid: 4d20b4d205c659c40b121e56bff820b0,
    type: 2}
  m_PrefabInstance: {fileID: 0}
  m_PrefabAsset: {fileID: 0}
  m_GameObject: {fileID: 1444734335}
  m_LocalRotation: {x: 0, y: 0.7071068, z: 0, w: 0.7071068}
  m_LocalPosition: {x: 0, y: 0, z: 0}
  m_LocalScale: {x: 1, y: 1, z: 1}
  m_Children:
  - {fileID: 1275443620}
  - {fileID: 300715999}
  - {fileID: 405591765}
  m_Father: {fileID: 0}
  m_RootOrder: 5
  m_LocalEulerAnglesHint: {x: 0, y: 90, z: 0}
--- !u!1 &1547029145
GameObject:
  m_ObjectHideFlags: 0
  m_CorrespondingSourceObject: {fileID: 1639467064323808, guid: 831f7474a5c14654a9e30be0a073c2a8,
    type: 2}
  m_PrefabInstance: {fileID: 0}
  m_PrefabAsset: {fileID: 0}
  serializedVersion: 6
  m_Component:
  - component: {fileID: 1547029146}
  - component: {fileID: 1547029147}
  m_Layer: 0
  m_Name: Light Probe Group
  m_TagString: Untagged
  m_Icon: {fileID: 0}
  m_NavMeshLayer: 0
  m_StaticEditorFlags: 0
  m_IsActive: 1
--- !u!4 &1547029146
Transform:
  m_ObjectHideFlags: 0
  m_CorrespondingSourceObject: {fileID: 4676111292229452, guid: 831f7474a5c14654a9e30be0a073c2a8,
    type: 2}
  m_PrefabInstance: {fileID: 0}
  m_PrefabAsset: {fileID: 0}
  m_GameObject: {fileID: 1547029145}
  m_LocalRotation: {x: -0, y: 0.7071068, z: -0, w: 0.7071068}
  m_LocalPosition: {x: 0, y: 0, z: 0}
  m_LocalScale: {x: 1, y: 1, z: 1}
  m_Children: []
  m_Father: {fileID: 0}
  m_RootOrder: 4
  m_LocalEulerAnglesHint: {x: 0, y: 0, z: 0}
--- !u!220 &1547029147
LightProbeGroup:
  m_ObjectHideFlags: 0
  m_CorrespondingSourceObject: {fileID: 220269653436403174, guid: 831f7474a5c14654a9e30be0a073c2a8,
    type: 2}
  m_PrefabInstance: {fileID: 0}
  m_PrefabAsset: {fileID: 0}
  m_GameObject: {fileID: 1547029145}
  m_Enabled: 1
  m_SourcePositions:
  - {x: 3.105528, y: 0.16895413, z: 2.4095447}
  - {x: 3.0649188, y: 0.16895413, z: 0.88884413}
  - {x: -1.0584239, y: 1.1217368, z: 2.7403114}
  - {x: -1.7438574, y: 0.16895413, z: -1.2226346}
  - {x: 2.1004357, y: 0.16895413, z: 0.8648969}
  - {x: -1.7078182, y: 0.8534832, z: 2.3771396}
  - {x: -1.7438574, y: 0.16895413, z: -0.26830465}
  - {x: 1.7247949, y: 0.16895413, z: 0.11532086}
  - {x: 1.7499919, y: 0.16895413, z: -0.26830465}
  - {x: 1.7247949, y: 0.16895413, z: -1.2226346}
  - {x: -0.49640164, y: 0.16895413, z: -0.26830453}
  - {x: 1.7247949, y: 0.16895413, z: 0.11532086}
  - {x: 1.7247949, y: 0.16895413, z: 3.6209083}
  - {x: 1.7247949, y: 0.16895413, z: 3.6209083}
  - {x: 1.7247949, y: 0.16895413, z: 3.6209083}
  - {x: 1.7247949, y: 0.16895413, z: 3.6209083}
  - {x: 1.7247949, y: 0.16895413, z: 3.6209083}
  - {x: 1.7247949, y: 0.16895413, z: 3.6209083}
  - {x: 1.7247949, y: 0.16895413, z: 3.6209083}
  - {x: 1.7247949, y: 0.16895413, z: 3.6209083}
  - {x: 3.105528, y: 2.137173, z: 2.4095447}
  - {x: 3.0649185, y: 0.6519439, z: 2.0175197}
  - {x: 0.23031196, y: 2.137173, z: 3.6209083}
  - {x: -1.7438574, y: 2.137173, z: -1.2226346}
  - {x: 2.1004357, y: 0.6519439, z: 1.9935725}
  - {x: -1.7438574, y: 2.137173, z: 2.0342152}
  - {x: -1.7438574, y: 2.137173, z: -0.26830465}
  - {x: 1.7247949, y: 2.137173, z: 0.11532086}
  - {x: 1.7499919, y: 2.137173, z: -0.26830465}
  - {x: 1.7247949, y: 2.137173, z: -1.2226346}
  - {x: -0.6874457, y: 2.137173, z: 2.4426017}
  - {x: -0.49640164, y: 2.137173, z: -0.26830453}
  - {x: 1.7247949, y: 2.137173, z: 0.11532086}
  - {x: 1.7247949, y: 2.137173, z: 3.6209083}
  - {x: 1.7247949, y: 2.137173, z: 3.6209083}
  - {x: 1.7247949, y: 2.137173, z: 3.6209083}
  - {x: 1.7247949, y: 2.137173, z: 3.6209083}
  - {x: 1.7247949, y: 2.137173, z: 3.6209083}
  - {x: 1.7247949, y: 2.137173, z: 3.6209083}
  - {x: 1.7247949, y: 2.137173, z: 3.6209083}
  - {x: 1.7247949, y: 2.137173, z: 3.6209083}
  - {x: 3.0649188, y: 0.16895413, z: 0.88884413}
  - {x: 3.0649185, y: 0.6519439, z: 2.0175197}
  - {x: 3.0649188, y: 0.16895413, z: -1.2226346}
  - {x: 3.0649188, y: 2.137173, z: -1.2226346}
  - {x: 3.0649188, y: 0.16895413, z: -1.2226346}
  - {x: 3.0649188, y: 2.137173, z: -1.2226346}
  - {x: -0.49640164, y: 0.16895413, z: 0.11532098}
  - {x: -0.49640164, y: 2.137173, z: 0.11532098}
  - {x: 2.1137934, y: 0.16895413, z: 2.0019345}
  - {x: 2.1137934, y: 2.137173, z: 2.0019345}
  - {x: -1.7438574, y: 0.16895413, z: 0.11532086}
  - {x: -1.7438574, y: 2.137173, z: 0.11532086}
  - {x: 1.054212, y: 0.16895413, z: 2.411922}
  - {x: 1.054212, y: 2.137173, z: 2.411922}
  - {x: 0.3626945, y: 0.16895413, z: 2.0019345}
  - {x: 0.3626945, y: 2.137173, z: 2.0019345}
  - {x: -1.4774848, y: 0.8719945, z: 3.0514278}
  - {x: -1.7438574, y: 2.137173, z: 3.6209083}
  - {x: -1.0676951, y: 0.16895413, z: 2.9097056}
  - {x: -0.7975282, y: 0.56283283, z: 3.0660741}
  - {x: -1.7438574, y: 0.16895413, z: 3.6209083}
  - {x: 0.23031196, y: 0.16895413, z: 3.6209083}
  - {x: -0.6072879, y: 0.16895413, z: 3.256002}
  - {x: -1.3810283, y: 0.51661086, z: 2.9244456}
  - {x: -1.7438574, y: 0.16895413, z: 2.0342152}
  - {x: 3.105528, y: 0.16895413, z: 3.6209083}
  - {x: 3.105528, y: 2.137173, z: 3.6209083}
  - {x: 2.1004357, y: 0.16895413, z: 0.08172482}
  - {x: 3.0649188, y: 0.16895413, z: 0.10567212}
  - {x: 3.0649188, y: 0.16895413, z: 0.10567212}
  - {x: 3.0649188, y: 2.137173, z: 0.10567212}
  - {x: 3.0649188, y: 2.137173, z: 0.10567212}
  - {x: 2.1004357, y: 2.137173, z: 0.08172482}
  - {x: 3.0649188, y: 2.137173, z: 0.88884413}
  - {x: 2.1004357, y: 2.137173, z: 0.8648969}
  - {x: 3.0649188, y: 2.137173, z: 0.88884413}
  - {x: 3.0649188, y: 0.6519439, z: 0.88884413}
  - {x: 2.1004357, y: 0.6519439, z: 0.8648969}
  - {x: 3.0649188, y: 0.6519439, z: 0.88884413}
  - {x: 3.0649188, y: 0.6519439, z: 1.3790772}
  - {x: 2.1004357, y: 0.6519439, z: 1.35513}
  - {x: -1.7438573, y: 2.137173, z: 1.3957727}
  - {x: 3.0649188, y: 0.6519439, z: 1.3790772}
  - {x: 2.1137934, y: 0.16895413, z: 1.363492}
  - {x: 2.1137934, y: 2.137173, z: 1.363492}
  - {x: 0.36269462, y: 0.16895413, z: 1.363492}
  - {x: 0.36269462, y: 2.137173, z: 1.363492}
  - {x: -1.7438573, y: 0.16895413, z: 1.3957727}
  - {x: 3.0649185, y: 1.0357099, z: 2.0175197}
  - {x: 2.1004357, y: 1.0357099, z: 1.9935725}
  - {x: 3.0649185, y: 1.0357099, z: 2.0175197}
  - {x: 3.0649188, y: 1.0357099, z: 0.88884413}
  - {x: 2.1004357, y: 1.0357099, z: 0.8648969}
  - {x: 3.0649188, y: 1.0357099, z: 0.88884413}
  - {x: 3.0649188, y: 1.0357099, z: 1.3790772}
  - {x: 2.1004357, y: 1.0357099, z: 1.35513}
  - {x: 3.0649188, y: 1.0357099, z: 1.3790772}
  - {x: 3.0649185, y: 1.6615444, z: 2.0175197}
  - {x: 2.1004357, y: 1.6615444, z: 1.9935725}
  - {x: 3.0649185, y: 1.6615444, z: 2.0175197}
  - {x: 3.0649188, y: 1.6615444, z: 0.88884413}
  - {x: 2.1004357, y: 1.6615444, z: 0.8648969}
  - {x: 3.0649188, y: 1.6615444, z: 0.88884413}
  - {x: 3.0649188, y: 1.6615444, z: 1.3790772}
  - {x: 2.1004357, y: 1.6615444, z: 1.35513}
  - {x: 3.0649188, y: 1.6615444, z: 1.3790772}
  - {x: -1.4713501, y: 0.63955027, z: 2.5137973}
  - {x: -0.68649423, y: 0.51661086, z: 2.327536}
  - {x: -0.8738291, y: 0.51661086, z: 2.5225298}
  m_Dering: 0
--- !u!114 &1708104166
MonoBehaviour:
  m_ObjectHideFlags: 0
  m_CorrespondingSourceObject: {fileID: 0}
  m_PrefabInstance: {fileID: 0}
  m_PrefabAsset: {fileID: 0}
  m_GameObject: {fileID: 0}
  m_Enabled: 1
  m_EditorHideFlags: 0
  m_Script: {fileID: 11500000, guid: 59b6606ef2548734bb6d11b9d160bc7e, type: 3}
  m_Name: 
  m_EditorClassIdentifier: 
  active: 1
  m_AdvancedMode: 0
  rotation:
    m_OverrideState: 0
    m_Value: 0
    min: 0
    max: 360
  skyIntensityMode:
    m_OverrideState: 0
    m_Value: 0
  exposure:
    m_OverrideState: 0
    m_Value: 10
  multiplier:
    m_OverrideState: 0
    m_Value: 1
    min: 0
  upperHemisphereLuxValue:
    m_OverrideState: 0
    m_Value: 1
    min: 0
  upperHemisphereLuxColor:
    m_OverrideState: 0
    m_Value: {x: 0, y: 0, z: 0}
  desiredLuxValue:
    m_OverrideState: 0
    m_Value: 20000
  updateMode:
    m_OverrideState: 0
    m_Value: 0
  updatePeriod:
    m_OverrideState: 0
    m_Value: 0
    min: 0
  includeSunInBaking:
    m_OverrideState: 0
    m_Value: 0
  hdriSky:
    m_OverrideState: 0
    m_Value: {fileID: 8900000, guid: 54a3a0570aebe8949bec4966f1376581, type: 3}
  enableBackplate:
    m_OverrideState: 0
    m_Value: 0
  backplateType:
    m_OverrideState: 0
    m_Value: 0
  groundLevel:
    m_OverrideState: 0
    m_Value: 0
  scale:
    m_OverrideState: 0
    m_Value: {x: 32, y: 32}
  projectionDistance:
    m_OverrideState: 0
    m_Value: 16
    min: 0.0000001
  plateRotation:
    m_OverrideState: 0
    m_Value: 0
    min: 0
    max: 360
  plateTexRotation:
    m_OverrideState: 0
    m_Value: 0
    min: 0
    max: 360
  plateTexOffset:
    m_OverrideState: 0
    m_Value: {x: 0, y: 0}
  blendAmount:
    m_OverrideState: 0
    m_Value: 0
    min: 0
    max: 100
  shadowTint:
    m_OverrideState: 0
    m_Value: {r: 0.5, g: 0.5, b: 0.5, a: 1}
    hdr: 0
    showAlpha: 1
    showEyeDropper: 1
  pointLightShadow:
    m_OverrideState: 0
    m_Value: 0
  dirLightShadow:
    m_OverrideState: 0
    m_Value: 0
  rectLightShadow:
    m_OverrideState: 0
    m_Value: 0
--- !u!1 &2035111233
GameObject:
  m_ObjectHideFlags: 0
  m_CorrespondingSourceObject: {fileID: 0}
  m_PrefabInstance: {fileID: 0}
  m_PrefabAsset: {fileID: 0}
  serializedVersion: 6
  m_Component:
  - component: {fileID: 2035111235}
  - component: {fileID: 2035111234}
  - component: {fileID: 2035111237}
  m_Layer: 0
  m_Name: Directional Light
  m_TagString: Untagged
  m_Icon: {fileID: 0}
  m_NavMeshLayer: 0
  m_StaticEditorFlags: 0
  m_IsActive: 1
--- !u!108 &2035111234
Light:
  m_ObjectHideFlags: 0
  m_CorrespondingSourceObject: {fileID: 0}
  m_PrefabInstance: {fileID: 0}
  m_PrefabAsset: {fileID: 0}
  m_GameObject: {fileID: 2035111233}
  m_Enabled: 1
  serializedVersion: 10
  m_Type: 1
  m_Shape: 0
  m_Color: {r: 1, g: 1, b: 1, a: 1}
  m_Intensity: 10000
  m_Range: 10
  m_SpotAngle: 30
  m_InnerSpotAngle: 21.802082
  m_CookieSize: 10
  m_Shadows:
    m_Type: 1
    m_Resolution: -1
    m_CustomResolution: -1
    m_Strength: 1
    m_Bias: 0.01
    m_NormalBias: 0.1
    m_NearPlane: 0.1
    m_CullingMatrixOverride:
      e00: 1
      e01: 0
      e02: 0
      e03: 0
      e10: 0
      e11: 1
      e12: 0
      e13: 0
      e20: 0
      e21: 0
      e22: 1
      e23: 0
      e30: 0
      e31: 0
      e32: 0
      e33: 1
    m_UseCullingMatrixOverride: 0
  m_Cookie: {fileID: 0}
  m_DrawHalo: 0
  m_Flare: {fileID: 0}
  m_RenderMode: 0
  m_CullingMask:
    serializedVersion: 2
    m_Bits: 4294967295
  m_RenderingLayerMask: 1
  m_Lightmapping: 1
  m_LightShadowCasterMode: 0
  m_AreaSize: {x: 1, y: 1}
  m_BounceIntensity: 1
  m_ColorTemperature: 5500
  m_UseColorTemperature: 1
  m_BoundingSphereOverride: {x: 0, y: 0, z: 0, w: 0}
  m_UseBoundingSphereOverride: 0
  m_ShadowRadius: 0
  m_ShadowAngle: 0.53
--- !u!4 &2035111235
Transform:
  m_ObjectHideFlags: 0
  m_CorrespondingSourceObject: {fileID: 0}
  m_PrefabInstance: {fileID: 0}
  m_PrefabAsset: {fileID: 0}
  m_GameObject: {fileID: 2035111233}
  m_LocalRotation: {x: 0.70019025, y: 0.5256512, z: 0.09865969, w: 0.47295955}
  m_LocalPosition: {x: -3.18, y: 3, z: 0}
  m_LocalScale: {x: 1, y: 1, z: 1}
  m_Children: []
  m_Father: {fileID: 0}
  m_RootOrder: 1
  m_LocalEulerAnglesHint: {x: 33.959003, y: 130, z: 90.00001}
--- !u!114 &2035111237
MonoBehaviour:
  m_ObjectHideFlags: 0
  m_CorrespondingSourceObject: {fileID: 0}
  m_PrefabInstance: {fileID: 0}
  m_PrefabAsset: {fileID: 0}
  m_GameObject: {fileID: 2035111233}
  m_Enabled: 1
  m_EditorHideFlags: 0
  m_Script: {fileID: 11500000, guid: 7a68c43fe1f2a47cfa234b5eeaa98012, type: 3}
  m_Name: 
  m_EditorClassIdentifier: 
  m_Version: 10
  m_ObsoleteShadowResolutionTier: 2
  m_ObsoleteUseShadowQualitySettings: 1
  m_ObsoleteCustomShadowResolution: 1024
  m_ObsoleteContactShadows: 1
  m_PointlightHDType: 0
  m_SpotLightShape: 0
  m_AreaLightShape: 0
  m_Intensity: 10000
  m_EnableSpotReflector: 0
  m_LuxAtDistance: 1
  m_InnerSpotPercent: 0
  m_LightDimmer: 1
  m_VolumetricDimmer: 1
  m_LightUnit: 2
  m_FadeDistance: 10000
  m_AffectDiffuse: 1
  m_AffectSpecular: 1
  m_NonLightmappedOnly: 0
  m_ShapeWidth: 0.5
  m_ShapeHeight: 0.5
  m_AspectRatio: 1
  m_ShapeRadius: 0
  m_SoftnessScale: 1
  m_UseCustomSpotLightShadowCone: 0
  m_CustomSpotLightShadowCone: 30
  m_MaxSmoothness: 1
  m_ApplyRangeAttenuation: 1
  m_DisplayAreaLightEmissiveMesh: 0
  m_AreaLightCookie: {fileID: 0}
  m_AreaLightShadowCone: 120
  m_UseScreenSpaceShadows: 0
  m_InteractsWithSky: 1
  m_AngularDiameter: 0.53
  m_FlareSize: 2
  m_FlareTint: {r: 1, g: 1, b: 1, a: 1}
  m_FlareFalloff: 4
  m_SurfaceTexture: {fileID: 0}
  m_SurfaceTint: {r: 1, g: 1, b: 1, a: 1}
  m_Distance: 150000000
  m_UseRayTracedShadows: 0
  m_NumRayTracingSamples: 4
  m_FilterTracedShadow: 1
  m_FilterSizeTraced: 16
  m_SunLightConeAngle: 0.5
  m_LightShadowRadius: 0.5
  m_SemiTransparentShadow: 0
  m_ColorShadow: 1
  m_EvsmExponent: 15
  m_EvsmLightLeakBias: 0
  m_EvsmVarianceBias: 0.00001
  m_EvsmBlurPasses: 0
  m_LightlayersMask: 1
  m_LinkShadowLayers: 1
  m_ShadowNearPlane: 0.1
  m_BlockerSampleCount: 24
  m_FilterSampleCount: 32
  m_MinFilterSize: 0.01
  m_KernelSize: 5
  m_LightAngle: 1
  m_MaxDepthBias: 0.001
  m_ShadowResolution:
    m_Override: 1024
    m_UseOverride: 0
    m_Level: 2
  m_ShadowDimmer: 1
  m_VolumetricShadowDimmer: 1
  m_ShadowFadeDistance: 10000
  m_UseContactShadow:
    m_Override: 1
    m_UseOverride: 0
    m_Level: 2
  m_RayTracedContactShadow: 0
  m_ShadowTint: {r: 0, g: 0, b: 0, a: 1}
  m_PenumbraTint: 0
  m_NormalBias: 0.75
  m_SlopeBias: 0.5
  m_ShadowUpdateMode: 0
  m_BarnDoorAngle: 90
  m_BarnDoorLength: 0.05
  m_ShadowCascadeRatios:
  - 0.005
  - 0.015
  - 0.3
  m_ShadowCascadeBorders:
  - 0
  - 0
  - 0
  - 0.2
  m_ShadowAlgorithm: 0
  m_ShadowVariant: 3
  m_ShadowPrecision: 0
  useOldInspector: 0
  useVolumetric: 1
  featuresFoldout: 1
  showAdditionalSettings: 0
  m_AreaLightEmissiveMeshShadowCastingMode: 0
  m_AreaLightEmissiveMeshMotionVectorGenerationMode: 0
--- !u!1 &2048890472
GameObject:
  m_ObjectHideFlags: 0
  m_CorrespondingSourceObject: {fileID: 0}
  m_PrefabInstance: {fileID: 0}
  m_PrefabAsset: {fileID: 0}
  serializedVersion: 6
  m_Component:
  - component: {fileID: 2048890476}
  - component: {fileID: 2048890475}
  - component: {fileID: 2048890474}
  - component: {fileID: 2048890473}
  m_Layer: 0
  m_Name: Cube
  m_TagString: Untagged
  m_Icon: {fileID: 0}
  m_NavMeshLayer: 0
  m_StaticEditorFlags: 0
  m_IsActive: 1
--- !u!65 &2048890473
BoxCollider:
  m_ObjectHideFlags: 0
  m_CorrespondingSourceObject: {fileID: 0}
  m_PrefabInstance: {fileID: 0}
  m_PrefabAsset: {fileID: 0}
  m_GameObject: {fileID: 2048890472}
  m_Material: {fileID: 0}
  m_IsTrigger: 0
  m_Enabled: 1
  serializedVersion: 2
  m_Size: {x: 1, y: 1, z: 1}
  m_Center: {x: 0, y: 0, z: 0}
--- !u!23 &2048890474
MeshRenderer:
  m_ObjectHideFlags: 0
  m_CorrespondingSourceObject: {fileID: 0}
  m_PrefabInstance: {fileID: 0}
  m_PrefabAsset: {fileID: 0}
  m_GameObject: {fileID: 2048890472}
  m_Enabled: 1
  m_CastShadows: 1
  m_ReceiveShadows: 1
  m_DynamicOccludee: 1
  m_MotionVectors: 1
  m_LightProbeUsage: 1
  m_ReflectionProbeUsage: 1
  m_RayTracingMode: 2
  m_RenderingLayerMask: 1
  m_RendererPriority: 0
  m_Materials:
  - {fileID: 2100000, guid: 3dc4c92aae2e908479a7911e77429bab, type: 2}
  m_StaticBatchInfo:
    firstSubMesh: 0
    subMeshCount: 0
  m_StaticBatchRoot: {fileID: 0}
  m_ProbeAnchor: {fileID: 0}
  m_LightProbeVolumeOverride: {fileID: 0}
  m_ScaleInLightmap: 1
  m_ReceiveGI: 1
  m_PreserveUVs: 0
  m_IgnoreNormalsForChartDetection: 0
  m_ImportantGI: 0
  m_StitchLightmapSeams: 1
  m_SelectedEditorRenderState: 3
  m_MinimumChartSize: 4
  m_AutoUVMaxDistance: 0.5
  m_AutoUVMaxAngle: 89
  m_LightmapParameters: {fileID: 0}
  m_SortingLayerID: 0
  m_SortingLayer: 0
  m_SortingOrder: 0
--- !u!33 &2048890475
MeshFilter:
  m_ObjectHideFlags: 0
  m_CorrespondingSourceObject: {fileID: 0}
  m_PrefabInstance: {fileID: 0}
  m_PrefabAsset: {fileID: 0}
  m_GameObject: {fileID: 2048890472}
  m_Mesh: {fileID: 10202, guid: 0000000000000000e000000000000000, type: 0}
--- !u!4 &2048890476
Transform:
  m_ObjectHideFlags: 0
  m_CorrespondingSourceObject: {fileID: 0}
  m_PrefabInstance: {fileID: 0}
  m_PrefabAsset: {fileID: 0}
  m_GameObject: {fileID: 2048890472}
  m_LocalRotation: {x: -0.35355338, y: 0.35355338, z: 0.1464466, w: 0.8535535}
  m_LocalPosition: {x: 0, y: 0, z: 0}
  m_LocalScale: {x: 1, y: 1, z: 1}
  m_Children: []
  m_Father: {fileID: 0}
  m_RootOrder: 7
  m_LocalEulerAnglesHint: {x: -45, y: 45, z: 0}
--- !u!1 &2059789766
GameObject:
  m_ObjectHideFlags: 0
  m_CorrespondingSourceObject: {fileID: 1893501271177436, guid: b99944bf0f66a4643ac9a98799610529,
    type: 2}
  m_PrefabInstance: {fileID: 0}
  m_PrefabAsset: {fileID: 0}
  serializedVersion: 6
  m_Component:
  - component: {fileID: 2059789767}
  - component: {fileID: 2059789768}
  - component: {fileID: 2059789771}
  - component: {fileID: 2059789770}
  - component: {fileID: 2059789769}
  m_Layer: 0
  m_Name: Reflection Probe Behind Frame
  m_TagString: Untagged
  m_Icon: {fileID: 0}
  m_NavMeshLayer: 0
  m_StaticEditorFlags: 0
  m_IsActive: 1
--- !u!4 &2059789767
Transform:
  m_ObjectHideFlags: 0
  m_CorrespondingSourceObject: {fileID: 4802510121164778, guid: b99944bf0f66a4643ac9a98799610529,
    type: 2}
  m_PrefabInstance: {fileID: 0}
  m_PrefabAsset: {fileID: 0}
  m_GameObject: {fileID: 2059789766}
  m_LocalRotation: {x: -0, y: -0, z: -0, w: 1}
  m_LocalPosition: {x: 2.5100317, y: 1.196, z: 1.176016}
  m_LocalScale: {x: 1, y: 1, z: 1}
  m_Children: []
  m_Father: {fileID: 405591765}
  m_RootOrder: 2
  m_LocalEulerAnglesHint: {x: 0, y: 0, z: 0}
--- !u!215 &2059789768
ReflectionProbe:
  m_ObjectHideFlags: 0
  m_CorrespondingSourceObject: {fileID: 215423830422470646, guid: b99944bf0f66a4643ac9a98799610529,
    type: 2}
  m_PrefabInstance: {fileID: 0}
  m_PrefabAsset: {fileID: 0}
  m_GameObject: {fileID: 2059789766}
  m_Enabled: 1
  serializedVersion: 2
  m_Type: 0
  m_Mode: 2
  m_RefreshMode: 2
  m_TimeSlicingMode: 0
  m_Resolution: 256
  m_UpdateFrequency: 0
  m_BoxSize: {x: 1.27, y: 2.5, z: 4.9506874}
  m_BoxOffset: {x: 0, y: 0, z: 0}
  m_NearClip: 0.3
  m_FarClip: 1000
  m_ShadowDistance: 100
  m_ClearFlags: 1
  m_BackGroundColor: {r: 0.19215687, g: 0.3019608, b: 0.4745098, a: 0}
  m_CullingMask:
    serializedVersion: 2
    m_Bits: 4294967295
  m_IntensityMultiplier: 1
  m_BlendDistance: 0
  m_HDR: 1
  m_BoxProjection: 0
  m_RenderDynamicObjects: 0
  m_UseOcclusionCulling: 1
  m_Importance: 1
  m_CustomBakedTexture: {fileID: 0}
--- !u!114 &2059789769
MonoBehaviour:
  m_ObjectHideFlags: 0
  m_CorrespondingSourceObject: {fileID: 0}
  m_PrefabInstance: {fileID: 0}
  m_PrefabAsset: {fileID: 0}
  m_GameObject: {fileID: 2059789766}
  m_Enabled: 1
  m_EditorHideFlags: 0
  m_Script: {fileID: 11500000, guid: d0ef8dc2c2eabfa4e8cb77be57a837c0, type: 3}
  m_Name: 
  m_EditorClassIdentifier: 
  m_HDProbeVersion: 3
  m_ObsoleteInfiniteProjection: 0
  m_ObsoleteInfluenceVolume:
    m_EditorAdvancedModeBlendDistancePositive: {x: 0, y: 0, z: 0}
    m_EditorAdvancedModeBlendDistanceNegative: {x: 0, y: 0, z: 0}
    m_EditorSimplifiedModeBlendDistance: 0
    m_EditorAdvancedModeBlendNormalDistancePositive: {x: 0, y: 0, z: 0}
    m_EditorAdvancedModeBlendNormalDistanceNegative: {x: 0, y: 0, z: 0}
    m_EditorSimplifiedModeBlendNormalDistance: 0
    m_EditorAdvancedModeEnabled: 0
    m_EditorAdvancedModeFaceFadePositive: {x: 1, y: 1, z: 1}
    m_EditorAdvancedModeFaceFadeNegative: {x: 1, y: 1, z: 1}
    m_Version: 1
    m_ObsoleteSphereBaseOffset: {x: 0, y: 0, z: 0}
    m_ObsoleteOffset: {x: 0, y: 0, z: 0}
    m_Shape: 0
    m_BoxSize: {x: 1.27, y: 2.5, z: 4.9506874}
    m_BoxBlendDistancePositive: {x: 0, y: 0, z: 0}
    m_BoxBlendDistanceNegative: {x: 0, y: 0, z: 0}
    m_BoxBlendNormalDistancePositive: {x: 0, y: 0, z: 0}
    m_BoxBlendNormalDistanceNegative: {x: 0, y: 0, z: 0}
    m_BoxSideFadePositive: {x: 1, y: 1, z: 1}
    m_BoxSideFadeNegative: {x: 1, y: 1, z: 1}
    m_SphereRadius: 3
    m_SphereBlendDistance: 0
    m_SphereBlendNormalDistance: 0
  m_ObsoleteFrameSettings:
    overrides: 0
    enableShadow: 1
    enableContactShadows: 1
    enableShadowMask: 1
    enableSSR: 0
    enableSSAO: 1
    enableSubsurfaceScattering: 1
    enableTransmission: 1
    enableAtmosphericScattering: 1
    enableVolumetrics: 1
    enableReprojectionForVolumetrics: 1
    enableLightLayers: 1
    enableExposureControl: 1
    diffuseGlobalDimmer: 1
    specularGlobalDimmer: 1
    shaderLitMode: 1
    enableDepthPrepassWithDeferredRendering: 0
    enableTransparentPrepass: 1
    enableMotionVectors: 1
    enableObjectMotionVectors: 1
    enableDecals: 1
    enableRoughRefraction: 1
    enableTransparentPostpass: 1
    enableDistortion: 1
    enablePostprocess: 1
    enableOpaqueObjects: 1
    enableTransparentObjects: 1
    enableRealtimePlanarReflection: 1
    enableMSAA: 0
    enableAsyncCompute: 1
    runLightListAsync: 1
    runSSRAsync: 1
    runSSAOAsync: 1
    runContactShadowsAsync: 1
    runVolumeVoxelizationAsync: 1
    lightLoopSettings:
      overrides: 0
      enableDeferredTileAndCluster: 1
      enableComputeLightEvaluation: 1
      enableComputeLightVariants: 1
      enableComputeMaterialVariants: 1
      enableFptlForForwardOpaque: 1
      enableBigTilePrepass: 1
      isFptlEnabled: 1
  m_ObsoleteMultiplier: 1
  m_ObsoleteWeight: 1
  m_ObsoleteMode: 0
  m_ObsoleteLightLayers: 1
  m_ObsoleteCaptureSettings:
    overrides: 0
    clearColorMode: 0
    backgroundColorHDR: {r: 0.023529412, g: 0.07058824, b: 0.1882353, a: 0}
    clearDepth: 1
    cullingMask:
      serializedVersion: 2
      m_Bits: 4294967295
    useOcclusionCulling: 1
    volumeLayerMask:
      serializedVersion: 2
      m_Bits: 4294967295
    volumeAnchorOverride: {fileID: 0}
    projection: 0
    nearClipPlane: 0.3
    farClipPlane: 1000
    fieldOfView: 90
    orthographicSize: 5
    renderingPath: 0
    shadowDistance: 100
  m_ProbeSettings:
    frustum:
      fieldOfViewMode: 1
      fixedValue: 90
      automaticScale: 1
      viewerScale: 1
    type: 0
    mode: 0
    realtimeMode: 0
    lighting:
      multiplier: 1
      weight: 1
      lightLayer: 1
      fadeDistance: 10000
      rangeCompressionFactor: 1
    influence:
      m_EditorAdvancedModeBlendDistancePositive: {x: 0, y: 0, z: 0}
      m_EditorAdvancedModeBlendDistanceNegative: {x: 0, y: 0, z: 0}
      m_EditorSimplifiedModeBlendDistance: 0
      m_EditorAdvancedModeBlendNormalDistancePositive: {x: 0, y: 0, z: 0}
      m_EditorAdvancedModeBlendNormalDistanceNegative: {x: 0, y: 0, z: 0}
      m_EditorSimplifiedModeBlendNormalDistance: 0
      m_EditorAdvancedModeEnabled: 0
      m_EditorAdvancedModeFaceFadePositive: {x: 1, y: 1, z: 1}
      m_EditorAdvancedModeFaceFadeNegative: {x: 1, y: 1, z: 1}
      m_Version: 1
      m_ObsoleteSphereBaseOffset: {x: 0, y: 0, z: 0}
      m_ObsoleteOffset: {x: 0, y: 0, z: 0}
      m_Shape: 0
      m_BoxSize: {x: 1.27, y: 2.5, z: 4.9506874}
      m_BoxBlendDistancePositive: {x: 0, y: 0, z: 0}
      m_BoxBlendDistanceNegative: {x: 0, y: 0, z: 0}
      m_BoxBlendNormalDistancePositive: {x: 0, y: 0, z: 0}
      m_BoxBlendNormalDistanceNegative: {x: 0, y: 0, z: 0}
      m_BoxSideFadePositive: {x: 1, y: 1, z: 1}
      m_BoxSideFadeNegative: {x: 1, y: 1, z: 1}
      m_SphereRadius: 3
      m_SphereBlendDistance: 0
      m_SphereBlendNormalDistance: 0
    proxy:
      m_CSVersion: 1
      m_ObsoleteSphereInfiniteProjection: 0
      m_ObsoleteBoxInfiniteProjection: 0
      m_Shape: 0
      m_BoxSize: {x: 1, y: 1, z: 1}
      m_SphereRadius: 1
    proxySettings:
      useInfluenceVolumeAsProxyVolume: 1
      capturePositionProxySpace: {x: -0.00000043940543, y: 0, z: -0.000000317812}
      captureRotationProxySpace: {x: 0, y: 0, z: 0, w: 1}
      mirrorPositionProxySpace: {x: 0, y: 0, z: 0}
      mirrorRotationProxySpace: {x: 0, y: 0, z: 0, w: 0}
    resolution: 512
    cameraSettings:
      customRenderingSettings: 0
      renderingPathCustomFrameSettings:
        bitDatas:
          data1: 69275665628957
          data2: 4539628424389459968
        lodBias: 1
        lodBiasMode: 0
        lodBiasQualityLevel: 0
        maximumLODLevel: 0
        maximumLODLevelMode: 0
        maximumLODLevelQualityLevel: 0
        materialQuality: 0
      renderingPathCustomFrameSettingsOverrideMask:
        mask:
          data1: 0
          data2: 0
      bufferClearing:
        clearColorMode: 0
        backgroundColorHDR: {r: 0.023529412, g: 0.07058824, b: 0.1882353, a: 0}
        clearDepth: 1
      volumes:
        layerMask:
          serializedVersion: 2
          m_Bits: 1
        anchorOverride: {fileID: 0}
      frustum:
        mode: 0
        aspect: 1
        farClipPlaneRaw: 1000
        nearClipPlaneRaw: 0.3
        fieldOfView: 90
        projectionMatrix:
          e00: 1
          e01: 0
          e02: 0
          e03: 0
          e10: 0
          e11: 1
          e12: 0
          e13: 0
          e20: 0
          e21: 0
          e22: 1
          e23: 0
          e30: 0
          e31: 0
          e32: 0
          e33: 1
      culling:
        useOcclusionCulling: 1
        cullingMask:
          serializedVersion: 2
          m_Bits: 4294967295
        sceneCullingMaskOverride: 0
      invertFaceCulling: 0
      flipYMode: 0
      probeLayerMask:
        serializedVersion: 2
        m_Bits: 4294967295
      defaultFrameSettings: 0
      m_ObsoleteRenderingPath: 0
      m_ObsoleteFrameSettings:
        overrides: 0
        enableShadow: 0
        enableContactShadows: 0
        enableShadowMask: 0
        enableSSR: 0
        enableSSAO: 0
        enableSubsurfaceScattering: 0
        enableTransmission: 0
        enableAtmosphericScattering: 0
        enableVolumetrics: 0
        enableReprojectionForVolumetrics: 0
        enableLightLayers: 0
        enableExposureControl: 1
        diffuseGlobalDimmer: 0
        specularGlobalDimmer: 0
        shaderLitMode: 0
        enableDepthPrepassWithDeferredRendering: 0
        enableTransparentPrepass: 0
        enableMotionVectors: 0
        enableObjectMotionVectors: 0
        enableDecals: 0
        enableRoughRefraction: 0
        enableTransparentPostpass: 0
        enableDistortion: 0
        enablePostprocess: 0
        enableOpaqueObjects: 0
        enableTransparentObjects: 0
        enableRealtimePlanarReflection: 0
        enableMSAA: 0
        enableAsyncCompute: 0
        runLightListAsync: 0
        runSSRAsync: 0
        runSSAOAsync: 0
        runContactShadowsAsync: 0
        runVolumeVoxelizationAsync: 0
        lightLoopSettings:
          overrides: 0
          enableDeferredTileAndCluster: 0
          enableComputeLightEvaluation: 0
          enableComputeLightVariants: 0
          enableComputeMaterialVariants: 0
          enableFptlForForwardOpaque: 0
          enableBigTilePrepass: 0
          isFptlEnabled: 0
  m_ProbeSettingsOverride:
    probe: 0
    camera:
      camera: 0
  m_ProxyVolume: {fileID: 0}
  m_BakedTexture: {fileID: 8900000, guid: f87447f4c3970e2409d959b91b49c574, type: 3}
  m_CustomTexture: {fileID: 0}
  m_BakedRenderData:
    m_WorldToCameraRHS:
      e00: 0
      e01: 0
      e02: 0
      e03: 0
      e10: 0
      e11: 0
      e12: 0
      e13: 0
      e20: 0
      e21: 0
      e22: 0
      e23: 0
      e30: 0
      e31: 0
      e32: 0
      e33: 0
    m_ProjectionMatrix:
      e00: 0
      e01: 0
      e02: 0
      e03: 0
      e10: 0
      e11: 0
      e12: 0
      e13: 0
      e20: 0
      e21: 0
      e22: 0
      e23: 0
      e30: 0
      e31: 0
      e32: 0
      e33: 0
    m_CapturePosition: {x: 0, y: 0, z: 0}
    m_CaptureRotation: {x: 0, y: 0, z: 0, w: 0}
    m_FieldOfView: 0
    m_Aspect: 0
  m_CustomRenderData:
    m_WorldToCameraRHS:
      e00: 0
      e01: 0
      e02: 0
      e03: 0
      e10: 0
      e11: 0
      e12: 0
      e13: 0
      e20: 0
      e21: 0
      e22: 0
      e23: 0
      e30: 0
      e31: 0
      e32: 0
      e33: 0
    m_ProjectionMatrix:
      e00: 0
      e01: 0
      e02: 0
      e03: 0
      e10: 0
      e11: 0
      e12: 0
      e13: 0
      e20: 0
      e21: 0
      e22: 0
      e23: 0
      e30: 0
      e31: 0
      e32: 0
      e33: 0
    m_CapturePosition: {x: 0, y: 0, z: 0}
    m_CaptureRotation: {x: 0, y: 0, z: 0, w: 0}
    m_FieldOfView: 0
    m_Aspect: 0
  m_EditorOnlyData: 0
  m_ReflectionProbeVersion: 9
  m_ObsoleteInfluenceShape: 0
  m_ObsoleteInfluenceSphereRadius: 3
  m_ObsoleteBlendDistancePositive: {x: 0, y: 0, z: 0}
  m_ObsoleteBlendDistanceNegative: {x: 0, y: 0, z: 0}
  m_ObsoleteBlendNormalDistancePositive: {x: 0, y: 0, z: 0}
  m_ObsoleteBlendNormalDistanceNegative: {x: 0, y: 0, z: 0}
  m_ObsoleteBoxSideFadePositive: {x: 1, y: 1, z: 1}
  m_ObsoleteBoxSideFadeNegative: {x: 1, y: 1, z: 1}
--- !u!23 &2059789770
MeshRenderer:
  m_ObjectHideFlags: 2
  m_CorrespondingSourceObject: {fileID: 0}
  m_PrefabInstance: {fileID: 0}
  m_PrefabAsset: {fileID: 0}
  m_GameObject: {fileID: 2059789766}
  m_Enabled: 0
  m_CastShadows: 0
  m_ReceiveShadows: 1
  m_DynamicOccludee: 1
  m_MotionVectors: 2
  m_LightProbeUsage: 0
  m_ReflectionProbeUsage: 1
  m_RayTracingMode: 2
  m_RenderingLayerMask: 4294967295
  m_RendererPriority: 0
  m_Materials:
  - {fileID: 0}
  m_StaticBatchInfo:
    firstSubMesh: 0
    subMeshCount: 0
  m_StaticBatchRoot: {fileID: 0}
  m_ProbeAnchor: {fileID: 0}
  m_LightProbeVolumeOverride: {fileID: 0}
  m_ScaleInLightmap: 1
  m_ReceiveGI: 1
  m_PreserveUVs: 0
  m_IgnoreNormalsForChartDetection: 0
  m_ImportantGI: 0
  m_StitchLightmapSeams: 0
  m_SelectedEditorRenderState: 3
  m_MinimumChartSize: 4
  m_AutoUVMaxDistance: 0.5
  m_AutoUVMaxAngle: 89
  m_LightmapParameters: {fileID: 0}
  m_SortingLayerID: 0
  m_SortingLayer: 0
  m_SortingOrder: 0
--- !u!33 &2059789771
MeshFilter:
  m_ObjectHideFlags: 2
  m_CorrespondingSourceObject: {fileID: 0}
  m_PrefabInstance: {fileID: 0}
  m_PrefabAsset: {fileID: 0}
  m_GameObject: {fileID: 2059789766}
  m_Mesh: {fileID: 10207, guid: 0000000000000000e000000000000000, type: 0}
